2016-04-01 11:20:28,160 MainForm.BackupFiles:81
  [INFO ] - 開始備份檔案，備份種類: Output

2016-04-01 11:20:28,206 MainForm.DoCopyBackupFiles:116
  [WARN ] - 警告: 檔案複製時遇到問題. 訊息: 檔案 'D:\work\行情表web\StockTransformer\UenParser\bin\Debug\OutputBackup\20160401\Emerging_content_20160401.js' 已經存在。

2016-04-01 11:20:28,215 MainForm.DoCopyBackupFiles:116
  [WARN ] - 警告: 檔案複製時遇到問題. 訊息: 檔案 'D:\work\行情表web\StockTransformer\UenParser\bin\Debug\OutputBackup\20160401\Exchange_content_20160401.js' 已經存在。

2016-04-01 11:20:28,223 MainForm.DoCopyBackupFiles:116
  [WARN ] - 警告: 檔案複製時遇到問題. 訊息: 檔案 'D:\work\行情表web\StockTransformer\UenParser\bin\Debug\OutputBackup\20160401\Exchange_header_20160401.html' 已經存在。

2016-04-01 11:20:28,236 MainForm.DoCopyBackupFiles:116
  [WARN ] - 警告: 檔案複製時遇到問題. 訊息: 檔案 'D:\work\行情表web\StockTransformer\UenParser\bin\Debug\OutputBackup\20160401\Exchange_header_20160401.js' 已經存在。

2016-04-01 11:20:28,244 MainForm.DoCopyBackupFiles:116
  [WARN ] - 警告: 檔案複製時遇到問題. 訊息: 檔案 'D:\work\行情表web\StockTransformer\UenParser\bin\Debug\OutputBackup\20160401\Exchange_header_20160401.xml' 已經存在。

2016-04-01 11:20:28,391 MainForm.DoCopyBackupFiles:116
  [WARN ] - 警告: 檔案複製時遇到問題. 訊息: 檔案 'D:\work\行情表web\StockTransformer\UenParser\bin\Debug\OutputBackup\20160401\OTC_content_20160401.js' 已經存在。

2016-04-01 11:20:28,400 MainForm.DoCopyBackupFiles:116
  [WARN ] - 警告: 檔案複製時遇到問題. 訊息: 檔案 'D:\work\行情表web\StockTransformer\UenParser\bin\Debug\OutputBackup\20160401\OTC_header_20160401.js' 已經存在。

2016-04-01 11:20:28,408 MainForm.DoCopyBackupFiles:116
  [WARN ] - 警告: 檔案複製時遇到問題. 訊息: 檔案 'D:\work\行情表web\StockTransformer\UenParser\bin\Debug\OutputBackup\20160401\QRCode_20160401.png' 已經存在。

2016-04-01 11:20:30,846 MainForm.ProduceGenerateMarketPrice:262
  [INFO ] - 開始轉換上市檔案

2016-04-01 11:20:30,855 ExchangePriceGenerator.ReadLastdayData:107
  [INFO ] - 取得最近一次的Output備份檔，備份檔路徑: D:\work\行情表web\StockTransformer\UenParser\bin\Debug\OutputBackup\20160331

2016-04-01 11:20:30,857 ExchangePriceGenerator.ReadLastdayData:115
  [DEBUG] - 讀取檔案: D:\work\行情表web\StockTransformer\UenParser\bin\Debug\OutputBackup\20160331\Exchange1_20160331.js 內容

2016-04-01 11:20:30,871 ExchangePriceGenerator.ReadLastdayData:122
  [DEBUG] - 檔案讀取完成

2016-04-01 11:20:30,873 ExchangePriceGenerator.ReadLastdayData:130
  [DEBUG] - 將讀取到的JSON字串轉為ExchangeContentModel[]

2016-04-01 11:20:30,952 ExchangePriceGenerator.ReadTodayData:66
  [INFO ] - 取得今日的上市Source檔，檔案路徑: D:\work\行情表web\StockTransformer\UenParser\bin\Debug\Source\Nstock0.prn

2016-04-01 11:20:30,957 ExchangePriceGenerator.ReadTodayData:66
  [INFO ] - 取得今日的上市Source檔，檔案路徑: D:\work\行情表web\StockTransformer\UenParser\bin\Debug\Source\Nstock4.prn

2016-04-01 11:20:30,961 ExchangePriceGenerator.Process:136
  [DEBUG] - 開始parsing上市檔案，pattern: header

2016-04-01 11:20:30,984 ExchangePriceGenerator.GenerateJson:184
  [DEBUG] - parsing上市header檔完成，共 51 筆

2016-04-01 11:20:30,984 ExchangePriceGenerator.Process:136
  [DEBUG] - 開始parsing上市檔案，pattern: content

2016-04-01 11:20:31,009 ExchangePriceGenerator.Process:168
  [WARN ] - 上市 content 檔第 940 行，有不符合pattern的格式

2016-04-01 11:20:31,010 ExchangePriceGenerator.GenerateJson:186
  [DEBUG] - parsing上市content檔完成，共 939 筆

2016-04-01 11:20:31,017 ExchangePriceGenerator.PutHeaderDataToModel:284
  [DEBUG] - 逐一將parsing結果放到對應的ExchangeHeaderModel Attribute

2016-04-01 11:20:31,084 ExchangePriceGenerator.PutContentDataToModel:201
  [DEBUG] - 逐一將parsing結果放到對應的ExchangeContentModel Attribute

2016-04-01 11:20:31,178 ExchangePriceGenerator.CheckSymbol:612
  [WARN ] - 指數轉型態時發生錯誤，Error Type: System.FormatException

2016-04-01 11:20:31,273 ExchangePriceGenerator.CheckSymbol:612
  [WARN ] - 指數轉型態時發生錯誤，Error Type: System.FormatException

2016-04-01 11:20:31,341 ExchangePriceGenerator.CheckSymbol:612
  [WARN ] - 指數轉型態時發生錯誤，Error Type: System.FormatException

2016-04-01 11:20:31,409 ExchangePriceGenerator.CheckSymbol:612
  [WARN ] - 指數轉型態時發生錯誤，Error Type: System.FormatException

2016-04-01 11:20:31,497 ExchangePriceGenerator.CheckSymbol:612
  [WARN ] - 指數轉型態時發生錯誤，Error Type: System.FormatException

2016-04-01 11:20:31,548 ExchangePriceGenerator.CheckSymbol:612
  [WARN ] - 指數轉型態時發生錯誤，Error Type: System.FormatException

2016-04-01 11:20:31,617 ExchangePriceGenerator.CheckSymbol:612
  [WARN ] - 指數轉型態時發生錯誤，Error Type: System.FormatException

2016-04-01 11:20:31,855 MainForm.ProduceGenerateMarketPrice:268
  [INFO ] - 上市JS產生完成

2016-04-01 11:20:31,856 MainForm.ProduceGenerateMarketPrice:271
  [INFO ] - 開始轉換上櫃檔案

2016-04-01 11:20:31,858 OTCPriceGenerator.ReadLastdayData:94
  [INFO ] - 取得最近一次的Output備份檔，備份檔路徑: D:\work\行情表web\StockTransformer\UenParser\bin\Debug\OutputBackup\20160331

2016-04-01 11:20:31,859 OTCPriceGenerator.ReadLastdayData:102
  [DEBUG] - 讀取檔案: D:\work\行情表web\StockTransformer\UenParser\bin\Debug\OutputBackup\20160331\OTC1_20160331.js 內容

2016-04-01 11:20:31,879 OTCPriceGenerator.ReadLastdayData:109
  [DEBUG] - 檔案讀取完成

2016-04-01 11:20:31,880 OTCPriceGenerator.ReadLastdayData:117
  [DEBUG] - 將讀取到的JSON字串轉為OTCContentModel[]

2016-04-01 11:20:31,909 OTCPriceGenerator.ReadTodayData:49
  [INFO ] - 取得今日的上櫃Source檔，檔案路徑: D:\work\行情表web\StockTransformer\UenParser\bin\Debug\Source\STKSECTINX.TXT

2016-04-01 11:20:31,910 OTCPriceGenerator.ReadTodayData:49
  [INFO ] - 取得今日的上櫃Source檔，檔案路徑: D:\work\行情表web\StockTransformer\UenParser\bin\Debug\Source\STKT1QUOTESN.TXT

2016-04-01 11:20:31,921 OTCPriceGenerator.Process:122
  [DEBUG] - 開始parsing上櫃檔案，pattern: header

2016-04-01 11:20:31,923 OTCPriceGenerator.Process:155
  [WARN ] - 上櫃 header 檔第 1 行，有不符合pattern的格式

2016-04-01 11:20:31,924 OTCPriceGenerator.GenerateJson:171
  [DEBUG] - parsing上櫃header檔完成，共 19 筆

2016-04-01 11:20:31,924 OTCPriceGenerator.Process:122
  [DEBUG] - 開始parsing上櫃檔案，pattern: content

2016-04-01 11:20:31,967 OTCPriceGenerator.GenerateJson:173
  [DEBUG] - parsing上櫃content檔完成，共 3800 筆

2016-04-01 11:20:32,078 OTCPriceGenerator.PutHeaderDataToModel:187
  [DEBUG] - 逐一將parsing結果放到對應的OTCHeaderModel Attribute

2016-04-01 11:20:32,081 OTCPriceGenerator.PutContentDataToModel:208
  [DEBUG] - 逐一將parsing結果放到對應的OTCContentModel Attribute

2016-04-01 11:20:35,630 MainForm.ProduceGenerateMarketPrice:277
  [INFO ] - 上櫃JS產生完成

2016-04-01 11:20:35,631 MainForm.ProduceGenerateMarketPrice:280
  [INFO ] - 開始轉換興櫃檔案

2016-04-01 11:20:35,651 ExcelQueryExecutor.ValidateArgs:0
  [DEBUG] - ExcelQueryArgs = FileName: 'D:\work\行情表web\StockTransformer\UenParser\bin\Debug\Source\otcEMG.xls'; WorksheetName: 'Sheet1'; WorksheetIndex: ; StartRange: ; EndRange: ; Named Range: ; NoHeader: False; ColumnMappings: ; Transformations: , StrictMapping: None, UsePersistentConnection: False, TrimSpaces: None

2016-04-01 11:20:35,657 ExcelQueryExecutor..ctor:0
  [DEBUG] - Connection String: Provider=Microsoft.Jet.OLEDB.4.0;Data Source=D:\work\行情表web\StockTransformer\UenParser\bin\Debug\Source\otcEMG.xls;Extended Properties="Excel 8.0;HDR=YES;IMEX=1"

2016-04-01 11:20:35,749 ExcelQueryExecutor.LogSqlStatement:0
  [DEBUG] - SELECT * FROM [Sheet1$];

2016-04-01 11:20:36,265 MainForm.ProduceGenerateMarketPrice:285
  [INFO ] - 興櫃JS產生完成

2016-04-01 11:20:36,557 MainForm.AppendHeaderInfoIntoHTML:206
  [ERROR] - 錯誤: 表頭資料寫入index.html失敗. 訊息: 找不到路徑 'D:\work\行情表web\StockTransformer\UenParser\bin\Debug\Pack\20160401\' 的一部分。

2016-04-01 11:20:36,578 MainForm.AppendHeaderInfoIntoHTML:206
  [ERROR] - 錯誤: 表頭資料寫入index.html失敗. 訊息: 找不到路徑 'D:\work\行情表web\StockTransformer\UenParser\bin\Debug\Pack\20160401\' 的一部分。

2016-04-01 11:20:36,613 MainForm.BackupFiles:81
  [INFO ] - 開始備份檔案，備份種類: Source

2016-04-01 11:20:36,631 MainForm.DoCopyBackupFiles:116
  [WARN ] - 警告: 檔案複製時遇到問題. 訊息: 檔案 'D:\work\行情表web\StockTransformer\UenParser\bin\Debug\SourceBackup\20160401\(ReadMe)_20160401.txt' 已經存在。

2016-04-01 11:20:36,648 MainForm.DoCopyBackupFiles:116
  [WARN ] - 警告: 檔案複製時遇到問題. 訊息: 檔案 'D:\work\行情表web\StockTransformer\UenParser\bin\Debug\SourceBackup\20160401\Nstock0_20160401.prn' 已經存在。

2016-04-01 11:20:36,665 MainForm.DoCopyBackupFiles:116
  [WARN ] - 警告: 檔案複製時遇到問題. 訊息: 檔案 'D:\work\行情表web\StockTransformer\UenParser\bin\Debug\SourceBackup\20160401\Nstock4_20160401.prn' 已經存在。

2016-04-01 11:20:36,682 MainForm.DoCopyBackupFiles:116
  [WARN ] - 警告: 檔案複製時遇到問題. 訊息: 檔案 'D:\work\行情表web\StockTransformer\UenParser\bin\Debug\SourceBackup\20160401\otcEMG_20160401.xls' 已經存在。

2016-04-01 11:20:36,699 MainForm.DoCopyBackupFiles:116
  [WARN ] - 警告: 檔案複製時遇到問題. 訊息: 檔案 'D:\work\行情表web\StockTransformer\UenParser\bin\Debug\SourceBackup\20160401\STKSECTINX_20160401.TXT' 已經存在。

2016-04-01 11:20:36,815 MainForm.DoCopyBackupFiles:116
  [WARN ] - 警告: 檔案複製時遇到問題. 訊息: 檔案 'D:\work\行情表web\StockTransformer\UenParser\bin\Debug\SourceBackup\20160401\STKT1QUOTESN_20160401.TXT' 已經存在。

2016-04-01 11:20:36,845 MainForm.DoCopyBackupFiles:116
  [WARN ] - 警告: 檔案複製時遇到問題. 訊息: 檔案 'D:\work\行情表web\StockTransformer\UenParser\bin\Debug\SourceBackup\20160401\STKT1SUMMARY_20160401.TXT' 已經存在。

2016-04-01 11:20:36,854 MainForm.BackupFiles:90
  [INFO ] - Source 資料夾 今日已備份!

2016-04-01 11:20:36,855 MainForm.BackupFiles:81
  [INFO ] - 開始備份檔案，備份種類: Output

2016-04-01 11:20:36,874 MainForm.DoCopyBackupFiles:116
  [WARN ] - 警告: 檔案複製時遇到問題. 訊息: 檔案 'D:\work\行情表web\StockTransformer\UenParser\bin\Debug\OutputBackup\20160401\Emerging_content_20160401.js' 已經存在。

2016-04-01 11:20:36,894 MainForm.DoCopyBackupFiles:116
  [WARN ] - 警告: 檔案複製時遇到問題. 訊息: 檔案 'D:\work\行情表web\StockTransformer\UenParser\bin\Debug\OutputBackup\20160401\Exchange_content_20160401.js' 已經存在。

2016-04-01 11:20:37,017 MainForm.DoCopyBackupFiles:116
  [WARN ] - 警告: 檔案複製時遇到問題. 訊息: 檔案 'D:\work\行情表web\StockTransformer\UenParser\bin\Debug\OutputBackup\20160401\Exchange_header_20160401.html' 已經存在。

2016-04-01 11:20:37,041 MainForm.DoCopyBackupFiles:116
  [WARN ] - 警告: 檔案複製時遇到問題. 訊息: 檔案 'D:\work\行情表web\StockTransformer\UenParser\bin\Debug\OutputBackup\20160401\Exchange_header_20160401.js' 已經存在。

2016-04-01 11:20:37,061 MainForm.DoCopyBackupFiles:116
  [WARN ] - 警告: 檔案複製時遇到問題. 訊息: 檔案 'D:\work\行情表web\StockTransformer\UenParser\bin\Debug\OutputBackup\20160401\Exchange_header_20160401.xml' 已經存在。

2016-04-01 11:20:37,078 MainForm.DoCopyBackupFiles:116
  [WARN ] - 警告: 檔案複製時遇到問題. 訊息: 檔案 'D:\work\行情表web\StockTransformer\UenParser\bin\Debug\OutputBackup\20160401\OTC_content_20160401.js' 已經存在。

2016-04-01 11:20:37,095 MainForm.DoCopyBackupFiles:116
  [WARN ] - 警告: 檔案複製時遇到問題. 訊息: 檔案 'D:\work\行情表web\StockTransformer\UenParser\bin\Debug\OutputBackup\20160401\OTC_header_20160401.js' 已經存在。

2016-04-01 11:20:37,221 MainForm.DoCopyBackupFiles:116
  [WARN ] - 警告: 檔案複製時遇到問題. 訊息: 檔案 'D:\work\行情表web\StockTransformer\UenParser\bin\Debug\OutputBackup\20160401\QRCode_20160401.png' 已經存在。

2016-04-01 11:20:37,222 MainForm.BackupFiles:90
  [INFO ] - Output 資料夾 今日已備份!

2016-04-01 11:24:32,990 MainForm.BackupFiles:81
  [INFO ] - 開始備份檔案，備份種類: Output

2016-04-01 11:24:33,015 MainForm.DoCopyBackupFiles:116
  [WARN ] - 警告: 檔案複製時遇到問題. 訊息: 檔案 'D:\work\行情表web\StockTransformer\UenParser\bin\Debug\OutputBackup\20160401\Emerging_content_20160401.js' 已經存在。

2016-04-01 11:24:33,040 MainForm.DoCopyBackupFiles:116
  [WARN ] - 警告: 檔案複製時遇到問題. 訊息: 檔案 'D:\work\行情表web\StockTransformer\UenParser\bin\Debug\OutputBackup\20160401\Exchange_content_20160401.js' 已經存在。

2016-04-01 11:24:33,050 MainForm.DoCopyBackupFiles:116
  [WARN ] - 警告: 檔案複製時遇到問題. 訊息: 檔案 'D:\work\行情表web\StockTransformer\UenParser\bin\Debug\OutputBackup\20160401\Exchange_header_20160401.html' 已經存在。

2016-04-01 11:24:33,060 MainForm.DoCopyBackupFiles:116
  [WARN ] - 警告: 檔案複製時遇到問題. 訊息: 檔案 'D:\work\行情表web\StockTransformer\UenParser\bin\Debug\OutputBackup\20160401\Exchange_header_20160401.js' 已經存在。

2016-04-01 11:24:33,068 MainForm.DoCopyBackupFiles:116
  [WARN ] - 警告: 檔案複製時遇到問題. 訊息: 檔案 'D:\work\行情表web\StockTransformer\UenParser\bin\Debug\OutputBackup\20160401\Exchange_header_20160401.xml' 已經存在。

2016-04-01 11:24:33,220 MainForm.DoCopyBackupFiles:116
  [WARN ] - 警告: 檔案複製時遇到問題. 訊息: 檔案 'D:\work\行情表web\StockTransformer\UenParser\bin\Debug\OutputBackup\20160401\OTC_content_20160401.js' 已經存在。

2016-04-01 11:24:33,235 MainForm.DoCopyBackupFiles:116
  [WARN ] - 警告: 檔案複製時遇到問題. 訊息: 檔案 'D:\work\行情表web\StockTransformer\UenParser\bin\Debug\OutputBackup\20160401\OTC_header_20160401.js' 已經存在。

2016-04-01 11:24:33,251 MainForm.DoCopyBackupFiles:116
  [WARN ] - 警告: 檔案複製時遇到問題. 訊息: 檔案 'D:\work\行情表web\StockTransformer\UenParser\bin\Debug\OutputBackup\20160401\QRCode_20160401.png' 已經存在。

2016-04-01 11:24:34,940 MainForm.ProduceGenerateMarketPrice:262
  [INFO ] - 開始轉換上市檔案

2016-04-01 11:24:34,950 ExchangePriceGenerator.ReadLastdayData:107
  [INFO ] - 取得最近一次的Output備份檔，備份檔路徑: D:\work\行情表web\StockTransformer\UenParser\bin\Debug\OutputBackup\20160331

2016-04-01 11:24:34,955 ExchangePriceGenerator.ReadLastdayData:115
  [DEBUG] - 讀取檔案: D:\work\行情表web\StockTransformer\UenParser\bin\Debug\OutputBackup\20160331\Exchange1_20160331.js 內容

2016-04-01 11:24:34,962 ExchangePriceGenerator.ReadLastdayData:122
  [DEBUG] - 檔案讀取完成

2016-04-01 11:24:34,964 ExchangePriceGenerator.ReadLastdayData:130
  [DEBUG] - 將讀取到的JSON字串轉為ExchangeContentModel[]

2016-04-01 11:24:35,044 ExchangePriceGenerator.ReadTodayData:66
  [INFO ] - 取得今日的上市Source檔，檔案路徑: D:\work\行情表web\StockTransformer\UenParser\bin\Debug\Source\Nstock0.prn

2016-04-01 11:24:35,045 ExchangePriceGenerator.ReadTodayData:66
  [INFO ] - 取得今日的上市Source檔，檔案路徑: D:\work\行情表web\StockTransformer\UenParser\bin\Debug\Source\Nstock4.prn

2016-04-01 11:24:35,047 ExchangePriceGenerator.Process:136
  [DEBUG] - 開始parsing上市檔案，pattern: header

2016-04-01 11:24:35,070 ExchangePriceGenerator.GenerateJson:184
  [DEBUG] - parsing上市header檔完成，共 51 筆

2016-04-01 11:24:35,071 ExchangePriceGenerator.Process:136
  [DEBUG] - 開始parsing上市檔案，pattern: content

2016-04-01 11:24:35,194 ExchangePriceGenerator.Process:168
  [WARN ] - 上市 content 檔第 940 行，有不符合pattern的格式

2016-04-01 11:24:35,195 ExchangePriceGenerator.GenerateJson:186
  [DEBUG] - parsing上市content檔完成，共 939 筆

2016-04-01 11:24:35,204 ExchangePriceGenerator.PutHeaderDataToModel:284
  [DEBUG] - 逐一將parsing結果放到對應的ExchangeHeaderModel Attribute

2016-04-01 11:24:35,209 ExchangePriceGenerator.PutContentDataToModel:201
  [DEBUG] - 逐一將parsing結果放到對應的ExchangeContentModel Attribute

2016-04-01 11:24:35,256 ExchangePriceGenerator.CheckSymbol:612
  [WARN ] - 指數轉型態時發生錯誤，Error Type: System.FormatException

2016-04-01 11:24:35,336 ExchangePriceGenerator.CheckSymbol:612
  [WARN ] - 指數轉型態時發生錯誤，Error Type: System.FormatException

2016-04-01 11:24:35,418 ExchangePriceGenerator.CheckSymbol:612
  [WARN ] - 指數轉型態時發生錯誤，Error Type: System.FormatException

2016-04-01 11:24:35,485 ExchangePriceGenerator.CheckSymbol:612
  [WARN ] - 指數轉型態時發生錯誤，Error Type: System.FormatException

2016-04-01 11:24:35,571 ExchangePriceGenerator.CheckSymbol:612
  [WARN ] - 指數轉型態時發生錯誤，Error Type: System.FormatException

2016-04-01 11:24:35,622 ExchangePriceGenerator.CheckSymbol:612
  [WARN ] - 指數轉型態時發生錯誤，Error Type: System.FormatException

2016-04-01 11:24:35,690 ExchangePriceGenerator.CheckSymbol:612
  [WARN ] - 指數轉型態時發生錯誤，Error Type: System.FormatException

2016-04-01 11:24:35,927 MainForm.ProduceGenerateMarketPrice:268
  [INFO ] - 上市JS產生完成

2016-04-01 11:24:35,929 MainForm.ProduceGenerateMarketPrice:271
  [INFO ] - 開始轉換上櫃檔案

2016-04-01 11:24:35,931 OTCPriceGenerator.ReadLastdayData:94
  [INFO ] - 取得最近一次的Output備份檔，備份檔路徑: D:\work\行情表web\StockTransformer\UenParser\bin\Debug\OutputBackup\20160331

2016-04-01 11:24:35,932 OTCPriceGenerator.ReadLastdayData:102
  [DEBUG] - 讀取檔案: D:\work\行情表web\StockTransformer\UenParser\bin\Debug\OutputBackup\20160331\OTC1_20160331.js 內容

2016-04-01 11:24:35,934 OTCPriceGenerator.ReadLastdayData:109
  [DEBUG] - 檔案讀取完成

2016-04-01 11:24:35,935 OTCPriceGenerator.ReadLastdayData:117
  [DEBUG] - 將讀取到的JSON字串轉為OTCContentModel[]

2016-04-01 11:24:35,961 OTCPriceGenerator.ReadTodayData:49
  [INFO ] - 取得今日的上櫃Source檔，檔案路徑: D:\work\行情表web\StockTransformer\UenParser\bin\Debug\Source\STKSECTINX.TXT

2016-04-01 11:24:35,962 OTCPriceGenerator.ReadTodayData:49
  [INFO ] - 取得今日的上櫃Source檔，檔案路徑: D:\work\行情表web\StockTransformer\UenParser\bin\Debug\Source\STKT1QUOTESN.TXT

2016-04-01 11:24:35,968 OTCPriceGenerator.Process:122
  [DEBUG] - 開始parsing上櫃檔案，pattern: header

2016-04-01 11:24:35,970 OTCPriceGenerator.Process:155
  [WARN ] - 上櫃 header 檔第 1 行，有不符合pattern的格式

2016-04-01 11:24:35,971 OTCPriceGenerator.GenerateJson:171
  [DEBUG] - parsing上櫃header檔完成，共 19 筆

2016-04-01 11:24:35,977 OTCPriceGenerator.Process:122
  [DEBUG] - 開始parsing上櫃檔案，pattern: content

2016-04-01 11:24:36,017 OTCPriceGenerator.GenerateJson:173
  [DEBUG] - parsing上櫃content檔完成，共 3800 筆

2016-04-01 11:24:36,018 OTCPriceGenerator.PutHeaderDataToModel:187
  [DEBUG] - 逐一將parsing結果放到對應的OTCHeaderModel Attribute

2016-04-01 11:24:36,159 OTCPriceGenerator.PutContentDataToModel:208
  [DEBUG] - 逐一將parsing結果放到對應的OTCContentModel Attribute

2016-04-01 11:24:39,711 MainForm.ProduceGenerateMarketPrice:277
  [INFO ] - 上櫃JS產生完成

2016-04-01 11:24:39,713 MainForm.ProduceGenerateMarketPrice:280
  [INFO ] - 開始轉換興櫃檔案

2016-04-01 11:24:39,728 ExcelQueryExecutor.ValidateArgs:0
  [DEBUG] - ExcelQueryArgs = FileName: 'D:\work\行情表web\StockTransformer\UenParser\bin\Debug\Source\otcEMG.xls'; WorksheetName: 'Sheet1'; WorksheetIndex: ; StartRange: ; EndRange: ; Named Range: ; NoHeader: False; ColumnMappings: ; Transformations: , StrictMapping: None, UsePersistentConnection: False, TrimSpaces: None

2016-04-01 11:24:39,732 ExcelQueryExecutor..ctor:0
  [DEBUG] - Connection String: Provider=Microsoft.Jet.OLEDB.4.0;Data Source=D:\work\行情表web\StockTransformer\UenParser\bin\Debug\Source\otcEMG.xls;Extended Properties="Excel 8.0;HDR=YES;IMEX=1"

2016-04-01 11:24:39,822 ExcelQueryExecutor.LogSqlStatement:0
  [DEBUG] - SELECT * FROM [Sheet1$];

2016-04-01 11:24:40,069 MainForm.ProduceGenerateMarketPrice:285
  [INFO ] - 興櫃JS產生完成

2016-04-01 11:24:40,241 MainForm.AppendHeaderInfoIntoHTML:206
  [ERROR] - 錯誤: 表頭資料寫入index.html失敗. 訊息: 找不到路徑 'D:\work\行情表web\StockTransformer\UenParser\bin\Debug\Pack\20160401\' 的一部分。

2016-04-01 11:24:40,266 MainForm.AppendHeaderInfoIntoHTML:206
  [ERROR] - 錯誤: 表頭資料寫入index.html失敗. 訊息: 找不到路徑 'D:\work\行情表web\StockTransformer\UenParser\bin\Debug\Pack\20160401\' 的一部分。

2016-04-01 11:24:40,302 MainForm.BackupFiles:81
  [INFO ] - 開始備份檔案，備份種類: Source

2016-04-01 11:24:40,320 MainForm.DoCopyBackupFiles:116
  [WARN ] - 警告: 檔案複製時遇到問題. 訊息: 檔案 'D:\work\行情表web\StockTransformer\UenParser\bin\Debug\SourceBackup\20160401\(ReadMe)_20160401.txt' 已經存在。

2016-04-01 11:24:40,337 MainForm.DoCopyBackupFiles:116
  [WARN ] - 警告: 檔案複製時遇到問題. 訊息: 檔案 'D:\work\行情表web\StockTransformer\UenParser\bin\Debug\SourceBackup\20160401\Nstock0_20160401.prn' 已經存在。

2016-04-01 11:24:40,354 MainForm.DoCopyBackupFiles:116
  [WARN ] - 警告: 檔案複製時遇到問題. 訊息: 檔案 'D:\work\行情表web\StockTransformer\UenParser\bin\Debug\SourceBackup\20160401\Nstock4_20160401.prn' 已經存在。

2016-04-01 11:24:40,373 MainForm.DoCopyBackupFiles:116
  [WARN ] - 警告: 檔案複製時遇到問題. 訊息: 檔案 'D:\work\行情表web\StockTransformer\UenParser\bin\Debug\SourceBackup\20160401\otcEMG_20160401.xls' 已經存在。

2016-04-01 11:24:40,391 MainForm.DoCopyBackupFiles:116
  [WARN ] - 警告: 檔案複製時遇到問題. 訊息: 檔案 'D:\work\行情表web\StockTransformer\UenParser\bin\Debug\SourceBackup\20160401\STKSECTINX_20160401.TXT' 已經存在。

2016-04-01 11:24:40,408 MainForm.DoCopyBackupFiles:116
  [WARN ] - 警告: 檔案複製時遇到問題. 訊息: 檔案 'D:\work\行情表web\StockTransformer\UenParser\bin\Debug\SourceBackup\20160401\STKT1QUOTESN_20160401.TXT' 已經存在。

2016-04-01 11:24:40,425 MainForm.DoCopyBackupFiles:116
  [WARN ] - 警告: 檔案複製時遇到問題. 訊息: 檔案 'D:\work\行情表web\StockTransformer\UenParser\bin\Debug\SourceBackup\20160401\STKT1SUMMARY_20160401.TXT' 已經存在。

2016-04-01 11:24:40,547 MainForm.BackupFiles:90
  [INFO ] - Source 資料夾 今日已備份!

2016-04-01 11:24:40,549 MainForm.BackupFiles:81
  [INFO ] - 開始備份檔案，備份種類: Output

2016-04-01 11:24:40,581 MainForm.DoCopyBackupFiles:116
  [WARN ] - 警告: 檔案複製時遇到問題. 訊息: 檔案 'D:\work\行情表web\StockTransformer\UenParser\bin\Debug\OutputBackup\20160401\Emerging_content_20160401.js' 已經存在。

2016-04-01 11:24:40,608 MainForm.DoCopyBackupFiles:116
  [WARN ] - 警告: 檔案複製時遇到問題. 訊息: 檔案 'D:\work\行情表web\StockTransformer\UenParser\bin\Debug\OutputBackup\20160401\Exchange_content_20160401.js' 已經存在。

2016-04-01 11:24:40,628 MainForm.DoCopyBackupFiles:116
  [WARN ] - 警告: 檔案複製時遇到問題. 訊息: 檔案 'D:\work\行情表web\StockTransformer\UenParser\bin\Debug\OutputBackup\20160401\Exchange_header_20160401.html' 已經存在。

2016-04-01 11:24:40,646 MainForm.DoCopyBackupFiles:116
  [WARN ] - 警告: 檔案複製時遇到問題. 訊息: 檔案 'D:\work\行情表web\StockTransformer\UenParser\bin\Debug\OutputBackup\20160401\Exchange_header_20160401.js' 已經存在。

2016-04-01 11:24:40,752 MainForm.DoCopyBackupFiles:116
  [WARN ] - 警告: 檔案複製時遇到問題. 訊息: 檔案 'D:\work\行情表web\StockTransformer\UenParser\bin\Debug\OutputBackup\20160401\Exchange_header_20160401.xml' 已經存在。

2016-04-01 11:24:40,769 MainForm.DoCopyBackupFiles:116
  [WARN ] - 警告: 檔案複製時遇到問題. 訊息: 檔案 'D:\work\行情表web\StockTransformer\UenParser\bin\Debug\OutputBackup\20160401\OTC_content_20160401.js' 已經存在。

2016-04-01 11:24:40,786 MainForm.DoCopyBackupFiles:116
  [WARN ] - 警告: 檔案複製時遇到問題. 訊息: 檔案 'D:\work\行情表web\StockTransformer\UenParser\bin\Debug\OutputBackup\20160401\OTC_header_20160401.js' 已經存在。

2016-04-01 11:24:40,803 MainForm.DoCopyBackupFiles:116
  [WARN ] - 警告: 檔案複製時遇到問題. 訊息: 檔案 'D:\work\行情表web\StockTransformer\UenParser\bin\Debug\OutputBackup\20160401\QRCode_20160401.png' 已經存在。

2016-04-01 11:24:40,804 MainForm.BackupFiles:90
  [INFO ] - Output 資料夾 今日已備份!

2016-04-01 11:25:58,036 MainForm.BackupFiles:81
  [INFO ] - 開始備份檔案，備份種類: Output

2016-04-01 11:25:58,061 MainForm.DoCopyBackupFiles:116
  [WARN ] - 警告: 檔案複製時遇到問題. 訊息: 檔案 'D:\work\行情表web\StockTransformer\UenParser\bin\Debug\OutputBackup\20160401\Emerging_content_20160401.js' 已經存在。

2016-04-01 11:25:58,071 MainForm.DoCopyBackupFiles:116
  [WARN ] - 警告: 檔案複製時遇到問題. 訊息: 檔案 'D:\work\行情表web\StockTransformer\UenParser\bin\Debug\OutputBackup\20160401\Exchange_content_20160401.js' 已經存在。

2016-04-01 11:25:58,081 MainForm.DoCopyBackupFiles:116
  [WARN ] - 警告: 檔案複製時遇到問題. 訊息: 檔案 'D:\work\行情表web\StockTransformer\UenParser\bin\Debug\OutputBackup\20160401\Exchange_header_20160401.html' 已經存在。

2016-04-01 11:25:58,090 MainForm.DoCopyBackupFiles:116
  [WARN ] - 警告: 檔案複製時遇到問題. 訊息: 檔案 'D:\work\行情表web\StockTransformer\UenParser\bin\Debug\OutputBackup\20160401\Exchange_header_20160401.js' 已經存在。

2016-04-01 11:25:58,098 MainForm.DoCopyBackupFiles:116
  [WARN ] - 警告: 檔案複製時遇到問題. 訊息: 檔案 'D:\work\行情表web\StockTransformer\UenParser\bin\Debug\OutputBackup\20160401\Exchange_header_20160401.xml' 已經存在。

2016-04-01 11:25:58,106 MainForm.DoCopyBackupFiles:116
  [WARN ] - 警告: 檔案複製時遇到問題. 訊息: 檔案 'D:\work\行情表web\StockTransformer\UenParser\bin\Debug\OutputBackup\20160401\OTC_content_20160401.js' 已經存在。

2016-04-01 11:25:58,277 MainForm.DoCopyBackupFiles:116
  [WARN ] - 警告: 檔案複製時遇到問題. 訊息: 檔案 'D:\work\行情表web\StockTransformer\UenParser\bin\Debug\OutputBackup\20160401\OTC_header_20160401.js' 已經存在。

2016-04-01 11:25:58,293 MainForm.DoCopyBackupFiles:116
  [WARN ] - 警告: 檔案複製時遇到問題. 訊息: 檔案 'D:\work\行情表web\StockTransformer\UenParser\bin\Debug\OutputBackup\20160401\QRCode_20160401.png' 已經存在。

2016-04-01 11:25:59,970 RandomCodeGenerator.ProduceOutput:25
  [INFO ] - 產生亂碼名稱完成，檔名為: 16DAB.png

2016-04-01 11:26:00,039 QRCodeGenerator.ProduceOutput:59
  [INFO ] - 繪製 QRCode 完成，Url位址為: http://udn.com/uen/16DAB/

2016-04-01 11:37:57,226 MainForm.BackupFiles:81
  [INFO ] - 開始備份檔案，備份種類: Output

2016-04-01 11:37:57,242 MainForm.DoCopyBackupFiles:116
  [WARN ] - 警告: 檔案複製時遇到問題. 訊息: 檔案 'D:\work\行情表web\StockTransformer\UenParser\bin\Debug\OutputBackup\20160401\Emerging_content_20160401.js' 已經存在。

2016-04-01 11:37:57,257 MainForm.DoCopyBackupFiles:116
  [WARN ] - 警告: 檔案複製時遇到問題. 訊息: 檔案 'D:\work\行情表web\StockTransformer\UenParser\bin\Debug\OutputBackup\20160401\Exchange_content_20160401.js' 已經存在。

2016-04-01 11:37:57,257 MainForm.DoCopyBackupFiles:116
  [WARN ] - 警告: 檔案複製時遇到問題. 訊息: 檔案 'D:\work\行情表web\StockTransformer\UenParser\bin\Debug\OutputBackup\20160401\Exchange_header_20160401.html' 已經存在。

2016-04-01 11:37:57,273 MainForm.DoCopyBackupFiles:116
  [WARN ] - 警告: 檔案複製時遇到問題. 訊息: 檔案 'D:\work\行情表web\StockTransformer\UenParser\bin\Debug\OutputBackup\20160401\Exchange_header_20160401.js' 已經存在。

2016-04-01 11:37:57,288 MainForm.DoCopyBackupFiles:116
  [WARN ] - 警告: 檔案複製時遇到問題. 訊息: 檔案 'D:\work\行情表web\StockTransformer\UenParser\bin\Debug\OutputBackup\20160401\Exchange_header_20160401.xml' 已經存在。

2016-04-01 11:37:57,288 MainForm.DoCopyBackupFiles:116
  [WARN ] - 警告: 檔案複製時遇到問題. 訊息: 檔案 'D:\work\行情表web\StockTransformer\UenParser\bin\Debug\OutputBackup\20160401\OTC_content_20160401.js' 已經存在。

2016-04-01 11:37:57,481 MainForm.DoCopyBackupFiles:116
  [WARN ] - 警告: 檔案複製時遇到問題. 訊息: 檔案 'D:\work\行情表web\StockTransformer\UenParser\bin\Debug\OutputBackup\20160401\OTC_header_20160401.js' 已經存在。

2016-04-01 11:37:57,481 MainForm.DoCopyBackupFiles:116
  [WARN ] - 警告: 檔案複製時遇到問題. 訊息: 檔案 'D:\work\行情表web\StockTransformer\UenParser\bin\Debug\OutputBackup\20160401\QRCode_20160401.png' 已經存在。

2016-04-01 11:37:59,588 MainForm.ProduceGenerateMarketPrice:280
  [INFO ] - 開始轉換興櫃檔案

2016-04-01 11:37:59,619 ExcelQueryExecutor.ValidateArgs:0
  [DEBUG] - ExcelQueryArgs = FileName: 'D:\work\行情表web\StockTransformer\UenParser\bin\Debug\Source\otcEMG.xls'; WorksheetName: 'Sheet1'; WorksheetIndex: ; StartRange: ; EndRange: ; Named Range: ; NoHeader: False; ColumnMappings: ; Transformations: , StrictMapping: None, UsePersistentConnection: False, TrimSpaces: None

2016-04-01 11:37:59,619 ExcelQueryExecutor..ctor:0
  [DEBUG] - Connection String: Provider=Microsoft.Jet.OLEDB.4.0;Data Source=D:\work\行情表web\StockTransformer\UenParser\bin\Debug\Source\otcEMG.xls;Extended Properties="Excel 8.0;HDR=YES;IMEX=1"

2016-04-01 11:37:59,712 ExcelQueryExecutor.LogSqlStatement:0
  [DEBUG] - SELECT * FROM [Sheet1$];

2016-04-01 11:52:52,683 MainForm.BackupFiles:81
  [INFO ] - 開始備份檔案，備份種類: Output

2016-04-01 11:52:52,746 MainForm.DoCopyBackupFiles:116
  [WARN ] - 警告: 檔案複製時遇到問題. 訊息: 檔案 'D:\work\行情表web\StockTransformer\UenParser\bin\Debug\OutputBackup\20160401\Emerging_content_20160401.js' 已經存在。

2016-04-01 11:52:52,746 MainForm.DoCopyBackupFiles:116
  [WARN ] - 警告: 檔案複製時遇到問題. 訊息: 檔案 'D:\work\行情表web\StockTransformer\UenParser\bin\Debug\OutputBackup\20160401\Exchange_content_20160401.js' 已經存在。

2016-04-01 11:52:52,761 MainForm.DoCopyBackupFiles:116
  [WARN ] - 警告: 檔案複製時遇到問題. 訊息: 檔案 'D:\work\行情表web\StockTransformer\UenParser\bin\Debug\OutputBackup\20160401\Exchange_header_20160401.html' 已經存在。

2016-04-01 11:52:52,777 MainForm.DoCopyBackupFiles:116
  [WARN ] - 警告: 檔案複製時遇到問題. 訊息: 檔案 'D:\work\行情表web\StockTransformer\UenParser\bin\Debug\OutputBackup\20160401\Exchange_header_20160401.js' 已經存在。

2016-04-01 11:52:52,777 MainForm.DoCopyBackupFiles:116
  [WARN ] - 警告: 檔案複製時遇到問題. 訊息: 檔案 'D:\work\行情表web\StockTransformer\UenParser\bin\Debug\OutputBackup\20160401\Exchange_header_20160401.xml' 已經存在。

2016-04-01 11:52:52,948 MainForm.DoCopyBackupFiles:116
  [WARN ] - 警告: 檔案複製時遇到問題. 訊息: 檔案 'D:\work\行情表web\StockTransformer\UenParser\bin\Debug\OutputBackup\20160401\OTC_content_20160401.js' 已經存在。

2016-04-01 11:52:52,948 MainForm.DoCopyBackupFiles:116
  [WARN ] - 警告: 檔案複製時遇到問題. 訊息: 檔案 'D:\work\行情表web\StockTransformer\UenParser\bin\Debug\OutputBackup\20160401\OTC_header_20160401.js' 已經存在。

2016-04-01 11:52:52,964 MainForm.DoCopyBackupFiles:116
  [WARN ] - 警告: 檔案複製時遇到問題. 訊息: 檔案 'D:\work\行情表web\StockTransformer\UenParser\bin\Debug\OutputBackup\20160401\QRCode_20160401.png' 已經存在。

2016-04-01 11:52:55,648 MainForm.ProduceGenerateMarketPrice:280
  [INFO ] - 開始轉換興櫃檔案

2016-04-01 11:52:55,694 ExcelQueryExecutor.ValidateArgs:0
  [DEBUG] - ExcelQueryArgs = FileName: 'D:\work\行情表web\StockTransformer\UenParser\bin\Debug\Source\otcEMG.xls'; WorksheetName: 'Sheet1'; WorksheetIndex: ; StartRange: ; EndRange: ; Named Range: ; NoHeader: False; ColumnMappings: ; Transformations: , StrictMapping: None, UsePersistentConnection: False, TrimSpaces: None

2016-04-01 11:52:55,694 ExcelQueryExecutor..ctor:0
  [DEBUG] - Connection String: Provider=Microsoft.Jet.OLEDB.4.0;Data Source=D:\work\行情表web\StockTransformer\UenParser\bin\Debug\Source\otcEMG.xls;Extended Properties="Excel 8.0;HDR=YES;IMEX=1"

2016-04-01 11:52:55,788 ExcelQueryExecutor.LogSqlStatement:0
  [DEBUG] - SELECT * FROM [Sheet1$];

2016-04-01 11:54:21,948 MainForm.BackupFiles:81
  [INFO ] - 開始備份檔案，備份種類: Output

2016-04-01 11:54:21,964 MainForm.DoCopyBackupFiles:116
  [WARN ] - 警告: 檔案複製時遇到問題. 訊息: 檔案 'D:\work\行情表web\StockTransformer\UenParser\bin\Debug\OutputBackup\20160401\Emerging_content_20160401.js' 已經存在。

2016-04-01 11:54:21,979 MainForm.DoCopyBackupFiles:116
  [WARN ] - 警告: 檔案複製時遇到問題. 訊息: 檔案 'D:\work\行情表web\StockTransformer\UenParser\bin\Debug\OutputBackup\20160401\Exchange_content_20160401.js' 已經存在。

2016-04-01 11:54:21,979 MainForm.DoCopyBackupFiles:116
  [WARN ] - 警告: 檔案複製時遇到問題. 訊息: 檔案 'D:\work\行情表web\StockTransformer\UenParser\bin\Debug\OutputBackup\20160401\Exchange_header_20160401.html' 已經存在。

2016-04-01 11:54:21,995 MainForm.DoCopyBackupFiles:116
  [WARN ] - 警告: 檔案複製時遇到問題. 訊息: 檔案 'D:\work\行情表web\StockTransformer\UenParser\bin\Debug\OutputBackup\20160401\Exchange_header_20160401.js' 已經存在。

2016-04-01 11:54:22,010 MainForm.DoCopyBackupFiles:116
  [WARN ] - 警告: 檔案複製時遇到問題. 訊息: 檔案 'D:\work\行情表web\StockTransformer\UenParser\bin\Debug\OutputBackup\20160401\Exchange_header_20160401.xml' 已經存在。

2016-04-01 11:54:22,182 MainForm.DoCopyBackupFiles:116
  [WARN ] - 警告: 檔案複製時遇到問題. 訊息: 檔案 'D:\work\行情表web\StockTransformer\UenParser\bin\Debug\OutputBackup\20160401\OTC_content_20160401.js' 已經存在。

2016-04-01 11:54:22,182 MainForm.DoCopyBackupFiles:116
  [WARN ] - 警告: 檔案複製時遇到問題. 訊息: 檔案 'D:\work\行情表web\StockTransformer\UenParser\bin\Debug\OutputBackup\20160401\OTC_header_20160401.js' 已經存在。

2016-04-01 11:54:22,213 MainForm.DoCopyBackupFiles:116
  [WARN ] - 警告: 檔案複製時遇到問題. 訊息: 檔案 'D:\work\行情表web\StockTransformer\UenParser\bin\Debug\OutputBackup\20160401\QRCode_20160401.png' 已經存在。

2016-04-01 11:54:24,195 MainForm.ProduceGenerateMarketPrice:280
  [INFO ] - 開始轉換興櫃檔案

2016-04-01 11:54:24,226 ExcelQueryExecutor.ValidateArgs:0
  [DEBUG] - ExcelQueryArgs = FileName: 'D:\work\行情表web\StockTransformer\UenParser\bin\Debug\Source\otcEMG.xls'; WorksheetName: 'Sheet1'; WorksheetIndex: ; StartRange: ; EndRange: ; Named Range: ; NoHeader: False; ColumnMappings: ; Transformations: , StrictMapping: None, UsePersistentConnection: False, TrimSpaces: None

2016-04-01 11:54:24,226 ExcelQueryExecutor..ctor:0
  [DEBUG] - Connection String: Provider=Microsoft.Jet.OLEDB.4.0;Data Source=D:\work\行情表web\StockTransformer\UenParser\bin\Debug\Source\otcEMG.xls;Extended Properties="Excel 8.0;HDR=YES;IMEX=1"

2016-04-01 11:54:24,320 ExcelQueryExecutor.LogSqlStatement:0
  [DEBUG] - SELECT * FROM [Sheet1$];

2016-04-01 13:01:24,309 MainForm.BackupFiles:81
  [INFO ] - 開始備份檔案，備份種類: Output

2016-04-01 13:01:24,325 MainForm.DoCopyBackupFiles:116
  [WARN ] - 警告: 檔案複製時遇到問題. 訊息: 檔案 'D:\work\行情表web\StockTransformer\UenParser\bin\Debug\OutputBackup\20160401\Emerging_content_20160401.js' 已經存在。

2016-04-01 13:01:24,341 MainForm.DoCopyBackupFiles:116
  [WARN ] - 警告: 檔案複製時遇到問題. 訊息: 檔案 'D:\work\行情表web\StockTransformer\UenParser\bin\Debug\OutputBackup\20160401\Exchange_content_20160401.js' 已經存在。

2016-04-01 13:01:24,341 MainForm.DoCopyBackupFiles:116
  [WARN ] - 警告: 檔案複製時遇到問題. 訊息: 檔案 'D:\work\行情表web\StockTransformer\UenParser\bin\Debug\OutputBackup\20160401\Exchange_header_20160401.html' 已經存在。

2016-04-01 13:01:24,356 MainForm.DoCopyBackupFiles:116
  [WARN ] - 警告: 檔案複製時遇到問題. 訊息: 檔案 'D:\work\行情表web\StockTransformer\UenParser\bin\Debug\OutputBackup\20160401\Exchange_header_20160401.js' 已經存在。

2016-04-01 13:01:24,372 MainForm.DoCopyBackupFiles:116
  [WARN ] - 警告: 檔案複製時遇到問題. 訊息: 檔案 'D:\work\行情表web\StockTransformer\UenParser\bin\Debug\OutputBackup\20160401\Exchange_header_20160401.xml' 已經存在。

2016-04-01 13:01:24,372 MainForm.DoCopyBackupFiles:116
  [WARN ] - 警告: 檔案複製時遇到問題. 訊息: 檔案 'D:\work\行情表web\StockTransformer\UenParser\bin\Debug\OutputBackup\20160401\OTC_content_20160401.js' 已經存在。

2016-04-01 13:01:24,561 MainForm.DoCopyBackupFiles:116
  [WARN ] - 警告: 檔案複製時遇到問題. 訊息: 檔案 'D:\work\行情表web\StockTransformer\UenParser\bin\Debug\OutputBackup\20160401\OTC_header_20160401.js' 已經存在。

2016-04-01 13:01:24,561 MainForm.DoCopyBackupFiles:116
  [WARN ] - 警告: 檔案複製時遇到問題. 訊息: 檔案 'D:\work\行情表web\StockTransformer\UenParser\bin\Debug\OutputBackup\20160401\QRCode_20160401.png' 已經存在。

2016-04-01 13:01:27,176 MainForm.ProduceGenerateMarketPrice:280
  [INFO ] - 開始轉換興櫃檔案

2016-04-01 13:01:27,207 ExcelQueryExecutor.ValidateArgs:0
  [DEBUG] - ExcelQueryArgs = FileName: 'D:\work\行情表web\StockTransformer\UenParser\bin\Debug\Source\otcEMG.xls'; WorksheetName: 'Sheet1'; WorksheetIndex: ; StartRange: ; EndRange: ; Named Range: ; NoHeader: False; ColumnMappings: ; Transformations: , StrictMapping: None, UsePersistentConnection: False, TrimSpaces: None

2016-04-01 13:01:27,207 ExcelQueryExecutor..ctor:0
  [DEBUG] - Connection String: Provider=Microsoft.Jet.OLEDB.4.0;Data Source=D:\work\行情表web\StockTransformer\UenParser\bin\Debug\Source\otcEMG.xls;Extended Properties="Excel 8.0;HDR=YES;IMEX=1"

2016-04-01 13:01:27,318 ExcelQueryExecutor.LogSqlStatement:0
  [DEBUG] - SELECT * FROM [Sheet1$];

2016-04-01 13:06:45,685 MainForm.BackupFiles:81
  [INFO ] - 開始備份檔案，備份種類: Output

2016-04-01 13:06:45,716 MainForm.DoCopyBackupFiles:116
  [WARN ] - 警告: 檔案複製時遇到問題. 訊息: 檔案 'D:\work\行情表web\StockTransformer\UenParser\bin\Debug\OutputBackup\20160401\Emerging_content_20160401.js' 已經存在。

2016-04-01 13:06:45,716 MainForm.DoCopyBackupFiles:116
  [WARN ] - 警告: 檔案複製時遇到問題. 訊息: 檔案 'D:\work\行情表web\StockTransformer\UenParser\bin\Debug\OutputBackup\20160401\Exchange_content_20160401.js' 已經存在。

2016-04-01 13:06:45,732 MainForm.DoCopyBackupFiles:116
  [WARN ] - 警告: 檔案複製時遇到問題. 訊息: 檔案 'D:\work\行情表web\StockTransformer\UenParser\bin\Debug\OutputBackup\20160401\Exchange_header_20160401.html' 已經存在。

2016-04-01 13:06:45,732 MainForm.DoCopyBackupFiles:116
  [WARN ] - 警告: 檔案複製時遇到問題. 訊息: 檔案 'D:\work\行情表web\StockTransformer\UenParser\bin\Debug\OutputBackup\20160401\Exchange_header_20160401.js' 已經存在。

2016-04-01 13:06:45,747 MainForm.DoCopyBackupFiles:116
  [WARN ] - 警告: 檔案複製時遇到問題. 訊息: 檔案 'D:\work\行情表web\StockTransformer\UenParser\bin\Debug\OutputBackup\20160401\Exchange_header_20160401.xml' 已經存在。

2016-04-01 13:06:45,919 MainForm.DoCopyBackupFiles:116
  [WARN ] - 警告: 檔案複製時遇到問題. 訊息: 檔案 'D:\work\行情表web\StockTransformer\UenParser\bin\Debug\OutputBackup\20160401\OTC_content_20160401.js' 已經存在。

2016-04-01 13:06:45,919 MainForm.DoCopyBackupFiles:116
  [WARN ] - 警告: 檔案複製時遇到問題. 訊息: 檔案 'D:\work\行情表web\StockTransformer\UenParser\bin\Debug\OutputBackup\20160401\OTC_header_20160401.js' 已經存在。

2016-04-01 13:06:45,935 MainForm.DoCopyBackupFiles:116
  [WARN ] - 警告: 檔案複製時遇到問題. 訊息: 檔案 'D:\work\行情表web\StockTransformer\UenParser\bin\Debug\OutputBackup\20160401\QRCode_20160401.png' 已經存在。

2016-04-01 13:06:48,322 MainForm.ProduceGenerateMarketPrice:280
  [INFO ] - 開始轉換興櫃檔案

2016-04-01 13:06:48,338 ExcelQueryExecutor.ValidateArgs:0
  [DEBUG] - ExcelQueryArgs = FileName: 'D:\work\行情表web\StockTransformer\UenParser\bin\Debug\Source\otcEMG.xls'; WorksheetName: 'Sheet1'; WorksheetIndex: ; StartRange: ; EndRange: ; Named Range: ; NoHeader: False; ColumnMappings: ; Transformations: , StrictMapping: None, UsePersistentConnection: False, TrimSpaces: None

2016-04-01 13:06:48,338 ExcelQueryExecutor..ctor:0
  [DEBUG] - Connection String: Provider=Microsoft.Jet.OLEDB.4.0;Data Source=D:\work\行情表web\StockTransformer\UenParser\bin\Debug\Source\otcEMG.xls;Extended Properties="Excel 8.0;HDR=YES;IMEX=1"

2016-04-01 13:06:48,431 ExcelQueryExecutor.LogSqlStatement:0
  [DEBUG] - SELECT * FROM [Sheet1$];

2016-04-01 13:08:26,797 MainForm.BackupFiles:81
  [INFO ] - 開始備份檔案，備份種類: Output

2016-04-01 13:08:26,813 MainForm.DoCopyBackupFiles:116
  [WARN ] - 警告: 檔案複製時遇到問題. 訊息: 檔案 'D:\work\行情表web\StockTransformer\UenParser\bin\Debug\OutputBackup\20160401\Emerging_content_20160401.js' 已經存在。

2016-04-01 13:08:26,828 MainForm.DoCopyBackupFiles:116
  [WARN ] - 警告: 檔案複製時遇到問題. 訊息: 檔案 'D:\work\行情表web\StockTransformer\UenParser\bin\Debug\OutputBackup\20160401\Exchange_content_20160401.js' 已經存在。

2016-04-01 13:08:26,844 MainForm.DoCopyBackupFiles:116
  [WARN ] - 警告: 檔案複製時遇到問題. 訊息: 檔案 'D:\work\行情表web\StockTransformer\UenParser\bin\Debug\OutputBackup\20160401\Exchange_header_20160401.html' 已經存在。

2016-04-01 13:08:26,844 MainForm.DoCopyBackupFiles:116
  [WARN ] - 警告: 檔案複製時遇到問題. 訊息: 檔案 'D:\work\行情表web\StockTransformer\UenParser\bin\Debug\OutputBackup\20160401\Exchange_header_20160401.js' 已經存在。

2016-04-01 13:08:26,860 MainForm.DoCopyBackupFiles:116
  [WARN ] - 警告: 檔案複製時遇到問題. 訊息: 檔案 'D:\work\行情表web\StockTransformer\UenParser\bin\Debug\OutputBackup\20160401\Exchange_header_20160401.xml' 已經存在。

2016-04-01 13:08:27,031 MainForm.DoCopyBackupFiles:116
  [WARN ] - 警告: 檔案複製時遇到問題. 訊息: 檔案 'D:\work\行情表web\StockTransformer\UenParser\bin\Debug\OutputBackup\20160401\OTC_content_20160401.js' 已經存在。

2016-04-01 13:08:27,047 MainForm.DoCopyBackupFiles:116
  [WARN ] - 警告: 檔案複製時遇到問題. 訊息: 檔案 'D:\work\行情表web\StockTransformer\UenParser\bin\Debug\OutputBackup\20160401\OTC_header_20160401.js' 已經存在。

2016-04-01 13:08:27,047 MainForm.DoCopyBackupFiles:116
  [WARN ] - 警告: 檔案複製時遇到問題. 訊息: 檔案 'D:\work\行情表web\StockTransformer\UenParser\bin\Debug\OutputBackup\20160401\QRCode_20160401.png' 已經存在。

2016-04-01 13:08:29,206 MainForm.ProduceGenerateMarketPrice:280
  [INFO ] - 開始轉換興櫃檔案

2016-04-01 13:08:29,238 ExcelQueryExecutor.ValidateArgs:0
  [DEBUG] - ExcelQueryArgs = FileName: 'D:\work\行情表web\StockTransformer\UenParser\bin\Debug\Source\otcEMG.xls'; WorksheetName: 'Sheet1'; WorksheetIndex: ; StartRange: ; EndRange: ; Named Range: ; NoHeader: False; ColumnMappings: ; Transformations: , StrictMapping: None, UsePersistentConnection: False, TrimSpaces: None

2016-04-01 13:08:29,238 ExcelQueryExecutor..ctor:0
  [DEBUG] - Connection String: Provider=Microsoft.Jet.OLEDB.4.0;Data Source=D:\work\行情表web\StockTransformer\UenParser\bin\Debug\Source\otcEMG.xls;Extended Properties="Excel 8.0;HDR=YES;IMEX=1"

2016-04-01 13:08:29,347 ExcelQueryExecutor.LogSqlStatement:0
  [DEBUG] - SELECT * FROM [Sheet1$];

2016-04-01 13:37:02,498 MainForm.BackupFiles:81
  [INFO ] - 開始備份檔案，備份種類: Output

2016-04-01 13:37:02,523 MainForm.DoCopyBackupFiles:116
  [WARN ] - 警告: 檔案複製時遇到問題. 訊息: 檔案 'D:\work\行情表web\StockTransformer\UenParser\bin\Debug\OutputBackup\20160401\Emerging_content_20160401.js' 已經存在。

2016-04-01 13:37:02,533 MainForm.DoCopyBackupFiles:116
  [WARN ] - 警告: 檔案複製時遇到問題. 訊息: 檔案 'D:\work\行情表web\StockTransformer\UenParser\bin\Debug\OutputBackup\20160401\Exchange_content_20160401.js' 已經存在。

2016-04-01 13:37:02,543 MainForm.DoCopyBackupFiles:116
  [WARN ] - 警告: 檔案複製時遇到問題. 訊息: 檔案 'D:\work\行情表web\StockTransformer\UenParser\bin\Debug\OutputBackup\20160401\Exchange_header_20160401.html' 已經存在。

2016-04-01 13:37:02,552 MainForm.DoCopyBackupFiles:116
  [WARN ] - 警告: 檔案複製時遇到問題. 訊息: 檔案 'D:\work\行情表web\StockTransformer\UenParser\bin\Debug\OutputBackup\20160401\Exchange_header_20160401.js' 已經存在。

2016-04-01 13:37:02,560 MainForm.DoCopyBackupFiles:116
  [WARN ] - 警告: 檔案複製時遇到問題. 訊息: 檔案 'D:\work\行情表web\StockTransformer\UenParser\bin\Debug\OutputBackup\20160401\Exchange_header_20160401.xml' 已經存在。

2016-04-01 13:37:02,728 MainForm.DoCopyBackupFiles:116
  [WARN ] - 警告: 檔案複製時遇到問題. 訊息: 檔案 'D:\work\行情表web\StockTransformer\UenParser\bin\Debug\OutputBackup\20160401\OTC_content_20160401.js' 已經存在。

2016-04-01 13:37:02,744 MainForm.DoCopyBackupFiles:116
  [WARN ] - 警告: 檔案複製時遇到問題. 訊息: 檔案 'D:\work\行情表web\StockTransformer\UenParser\bin\Debug\OutputBackup\20160401\OTC_header_20160401.js' 已經存在。

2016-04-01 13:37:02,770 MainForm.DoCopyBackupFiles:116
  [WARN ] - 警告: 檔案複製時遇到問題. 訊息: 檔案 'D:\work\行情表web\StockTransformer\UenParser\bin\Debug\OutputBackup\20160401\QRCode_20160401.png' 已經存在。

2016-04-01 13:37:05,306 MainForm.ProduceGenerateMarketPrice:280
  [INFO ] - 開始轉換興櫃檔案

2016-04-01 13:37:05,336 ExcelQueryExecutor.ValidateArgs:0
  [DEBUG] - ExcelQueryArgs = FileName: 'D:\work\行情表web\StockTransformer\UenParser\bin\Debug\Source\otcEMG.xls'; WorksheetName: 'Sheet1'; WorksheetIndex: ; StartRange: ; EndRange: ; Named Range: ; NoHeader: False; ColumnMappings: ; Transformations: , StrictMapping: None, UsePersistentConnection: False, TrimSpaces: None

2016-04-01 13:37:05,343 ExcelQueryExecutor..ctor:0
  [DEBUG] - Connection String: Provider=Microsoft.Jet.OLEDB.4.0;Data Source=D:\work\行情表web\StockTransformer\UenParser\bin\Debug\Source\otcEMG.xls;Extended Properties="Excel 8.0;HDR=YES;IMEX=1"

2016-04-01 13:37:05,440 ExcelQueryExecutor.LogSqlStatement:0
  [DEBUG] - SELECT * FROM [Sheet1$];

2016-04-01 13:38:14,518 MainForm.BackupFiles:81
  [INFO ] - 開始備份檔案，備份種類: Output

2016-04-01 13:38:14,545 MainForm.DoCopyBackupFiles:116
  [WARN ] - 警告: 檔案複製時遇到問題. 訊息: 檔案 'D:\work\行情表web\StockTransformer\UenParser\bin\Debug\OutputBackup\20160401\Emerging_content_20160401.js' 已經存在。

2016-04-01 13:38:14,555 MainForm.DoCopyBackupFiles:116
  [WARN ] - 警告: 檔案複製時遇到問題. 訊息: 檔案 'D:\work\行情表web\StockTransformer\UenParser\bin\Debug\OutputBackup\20160401\Exchange_content_20160401.js' 已經存在。

2016-04-01 13:38:14,565 MainForm.DoCopyBackupFiles:116
  [WARN ] - 警告: 檔案複製時遇到問題. 訊息: 檔案 'D:\work\行情表web\StockTransformer\UenParser\bin\Debug\OutputBackup\20160401\Exchange_header_20160401.html' 已經存在。

2016-04-01 13:38:14,580 MainForm.DoCopyBackupFiles:116
  [WARN ] - 警告: 檔案複製時遇到問題. 訊息: 檔案 'D:\work\行情表web\StockTransformer\UenParser\bin\Debug\OutputBackup\20160401\Exchange_header_20160401.js' 已經存在。

2016-04-01 13:38:14,589 MainForm.DoCopyBackupFiles:116
  [WARN ] - 警告: 檔案複製時遇到問題. 訊息: 檔案 'D:\work\行情表web\StockTransformer\UenParser\bin\Debug\OutputBackup\20160401\Exchange_header_20160401.xml' 已經存在。

2016-04-01 13:38:14,597 MainForm.DoCopyBackupFiles:116
  [WARN ] - 警告: 檔案複製時遇到問題. 訊息: 檔案 'D:\work\行情表web\StockTransformer\UenParser\bin\Debug\OutputBackup\20160401\OTC_content_20160401.js' 已經存在。

2016-04-01 13:38:14,768 MainForm.DoCopyBackupFiles:116
  [WARN ] - 警告: 檔案複製時遇到問題. 訊息: 檔案 'D:\work\行情表web\StockTransformer\UenParser\bin\Debug\OutputBackup\20160401\OTC_header_20160401.js' 已經存在。

2016-04-01 13:38:14,781 MainForm.DoCopyBackupFiles:116
  [WARN ] - 警告: 檔案複製時遇到問題. 訊息: 檔案 'D:\work\行情表web\StockTransformer\UenParser\bin\Debug\OutputBackup\20160401\QRCode_20160401.png' 已經存在。

2016-04-01 13:38:17,115 MainForm.ProduceGenerateMarketPrice:280
  [INFO ] - 開始轉換興櫃檔案

2016-04-01 13:38:17,145 ExcelQueryExecutor.ValidateArgs:0
  [DEBUG] - ExcelQueryArgs = FileName: 'D:\work\行情表web\StockTransformer\UenParser\bin\Debug\Source\otcEMG.xls'; WorksheetName: 'Sheet1'; WorksheetIndex: ; StartRange: ; EndRange: ; Named Range: ; NoHeader: False; ColumnMappings: ; Transformations: , StrictMapping: None, UsePersistentConnection: False, TrimSpaces: None

2016-04-01 13:38:17,152 ExcelQueryExecutor..ctor:0
  [DEBUG] - Connection String: Provider=Microsoft.Jet.OLEDB.4.0;Data Source=D:\work\行情表web\StockTransformer\UenParser\bin\Debug\Source\otcEMG.xls;Extended Properties="Excel 8.0;HDR=YES;IMEX=1"

2016-04-01 13:38:17,251 ExcelQueryExecutor.LogSqlStatement:0
  [DEBUG] - SELECT * FROM [Sheet1$];

2016-04-01 13:40:14,397 MainForm.BackupFiles:81
  [INFO ] - 開始備份檔案，備份種類: Output

2016-04-01 13:40:14,424 MainForm.DoCopyBackupFiles:116
  [WARN ] - 警告: 檔案複製時遇到問題. 訊息: 檔案 'D:\work\行情表web\StockTransformer\UenParser\bin\Debug\OutputBackup\20160401\Emerging_content_20160401.js' 已經存在。

2016-04-01 13:40:14,434 MainForm.DoCopyBackupFiles:116
  [WARN ] - 警告: 檔案複製時遇到問題. 訊息: 檔案 'D:\work\行情表web\StockTransformer\UenParser\bin\Debug\OutputBackup\20160401\Exchange_content_20160401.js' 已經存在。

2016-04-01 13:40:14,453 MainForm.DoCopyBackupFiles:116
  [WARN ] - 警告: 檔案複製時遇到問題. 訊息: 檔案 'D:\work\行情表web\StockTransformer\UenParser\bin\Debug\OutputBackup\20160401\Exchange_header_20160401.html' 已經存在。

2016-04-01 13:40:14,462 MainForm.DoCopyBackupFiles:116
  [WARN ] - 警告: 檔案複製時遇到問題. 訊息: 檔案 'D:\work\行情表web\StockTransformer\UenParser\bin\Debug\OutputBackup\20160401\Exchange_header_20160401.js' 已經存在。

2016-04-01 13:40:14,470 MainForm.DoCopyBackupFiles:116
  [WARN ] - 警告: 檔案複製時遇到問題. 訊息: 檔案 'D:\work\行情表web\StockTransformer\UenParser\bin\Debug\OutputBackup\20160401\Exchange_header_20160401.xml' 已經存在。

2016-04-01 13:40:14,626 MainForm.DoCopyBackupFiles:116
  [WARN ] - 警告: 檔案複製時遇到問題. 訊息: 檔案 'D:\work\行情表web\StockTransformer\UenParser\bin\Debug\OutputBackup\20160401\OTC_content_20160401.js' 已經存在。

2016-04-01 13:40:14,641 MainForm.DoCopyBackupFiles:116
  [WARN ] - 警告: 檔案複製時遇到問題. 訊息: 檔案 'D:\work\行情表web\StockTransformer\UenParser\bin\Debug\OutputBackup\20160401\OTC_header_20160401.js' 已經存在。

2016-04-01 13:40:14,654 MainForm.DoCopyBackupFiles:116
  [WARN ] - 警告: 檔案複製時遇到問題. 訊息: 檔案 'D:\work\行情表web\StockTransformer\UenParser\bin\Debug\OutputBackup\20160401\QRCode_20160401.png' 已經存在。

2016-04-01 13:40:16,846 MainForm.ProduceGenerateMarketPrice:280
  [INFO ] - 開始轉換興櫃檔案

2016-04-01 13:40:16,876 ExcelQueryExecutor.ValidateArgs:0
  [DEBUG] - ExcelQueryArgs = FileName: 'D:\work\行情表web\StockTransformer\UenParser\bin\Debug\Source\otcEMG.xls'; WorksheetName: 'Sheet1'; WorksheetIndex: ; StartRange: ; EndRange: ; Named Range: ; NoHeader: False; ColumnMappings: ; Transformations: , StrictMapping: None, UsePersistentConnection: False, TrimSpaces: None

2016-04-01 13:40:16,884 ExcelQueryExecutor..ctor:0
  [DEBUG] - Connection String: Provider=Microsoft.Jet.OLEDB.4.0;Data Source=D:\work\行情表web\StockTransformer\UenParser\bin\Debug\Source\otcEMG.xls;Extended Properties="Excel 8.0;HDR=YES;IMEX=1"

2016-04-01 13:40:16,983 ExcelQueryExecutor.LogSqlStatement:0
  [DEBUG] - SELECT * FROM [Sheet1$];

2016-04-01 13:41:45,946 MainForm.BackupFiles:81
  [INFO ] - 開始備份檔案，備份種類: Output

2016-04-01 13:41:45,971 MainForm.DoCopyBackupFiles:116
  [WARN ] - 警告: 檔案複製時遇到問題. 訊息: 檔案 'D:\work\行情表web\StockTransformer\UenParser\bin\Debug\OutputBackup\20160401\Emerging_content_20160401.js' 已經存在。

2016-04-01 13:41:45,981 MainForm.DoCopyBackupFiles:116
  [WARN ] - 警告: 檔案複製時遇到問題. 訊息: 檔案 'D:\work\行情表web\StockTransformer\UenParser\bin\Debug\OutputBackup\20160401\Exchange_content_20160401.js' 已經存在。

2016-04-01 13:41:45,991 MainForm.DoCopyBackupFiles:116
  [WARN ] - 警告: 檔案複製時遇到問題. 訊息: 檔案 'D:\work\行情表web\StockTransformer\UenParser\bin\Debug\OutputBackup\20160401\Exchange_header_20160401.html' 已經存在。

2016-04-01 13:41:46,001 MainForm.DoCopyBackupFiles:116
  [WARN ] - 警告: 檔案複製時遇到問題. 訊息: 檔案 'D:\work\行情表web\StockTransformer\UenParser\bin\Debug\OutputBackup\20160401\Exchange_header_20160401.js' 已經存在。

2016-04-01 13:41:46,009 MainForm.DoCopyBackupFiles:116
  [WARN ] - 警告: 檔案複製時遇到問題. 訊息: 檔案 'D:\work\行情表web\StockTransformer\UenParser\bin\Debug\OutputBackup\20160401\Exchange_header_20160401.xml' 已經存在。

2016-04-01 13:41:46,171 MainForm.DoCopyBackupFiles:116
  [WARN ] - 警告: 檔案複製時遇到問題. 訊息: 檔案 'D:\work\行情表web\StockTransformer\UenParser\bin\Debug\OutputBackup\20160401\OTC_content_20160401.js' 已經存在。

2016-04-01 13:41:46,185 MainForm.DoCopyBackupFiles:116
  [WARN ] - 警告: 檔案複製時遇到問題. 訊息: 檔案 'D:\work\行情表web\StockTransformer\UenParser\bin\Debug\OutputBackup\20160401\OTC_header_20160401.js' 已經存在。

2016-04-01 13:41:46,195 MainForm.DoCopyBackupFiles:116
  [WARN ] - 警告: 檔案複製時遇到問題. 訊息: 檔案 'D:\work\行情表web\StockTransformer\UenParser\bin\Debug\OutputBackup\20160401\QRCode_20160401.png' 已經存在。

2016-04-01 13:41:48,537 MainForm.ProduceGenerateMarketPrice:280
  [INFO ] - 開始轉換興櫃檔案

2016-04-01 13:41:48,570 ExcelQueryExecutor.ValidateArgs:0
  [DEBUG] - ExcelQueryArgs = FileName: 'D:\work\行情表web\StockTransformer\UenParser\bin\Debug\Source\otcEMG.xls'; WorksheetName: 'Sheet1'; WorksheetIndex: ; StartRange: ; EndRange: ; Named Range: ; NoHeader: False; ColumnMappings: ; Transformations: , StrictMapping: None, UsePersistentConnection: False, TrimSpaces: None

2016-04-01 13:41:48,580 ExcelQueryExecutor..ctor:0
  [DEBUG] - Connection String: Provider=Microsoft.Jet.OLEDB.4.0;Data Source=D:\work\行情表web\StockTransformer\UenParser\bin\Debug\Source\otcEMG.xls;Extended Properties="Excel 8.0;HDR=YES;IMEX=1"

2016-04-01 13:41:48,673 ExcelQueryExecutor.LogSqlStatement:0
  [DEBUG] - SELECT * FROM [Sheet1$];

2016-04-01 13:46:25,844 MainForm.BackupFiles:81
  [INFO ] - 開始備份檔案，備份種類: Output

2016-04-01 13:46:25,869 MainForm.DoCopyBackupFiles:116
  [WARN ] - 警告: 檔案複製時遇到問題. 訊息: 檔案 'D:\work\行情表web\StockTransformer\UenParser\bin\Debug\OutputBackup\20160401\Emerging_content_20160401.js' 已經存在。

2016-04-01 13:46:25,879 MainForm.DoCopyBackupFiles:116
  [WARN ] - 警告: 檔案複製時遇到問題. 訊息: 檔案 'D:\work\行情表web\StockTransformer\UenParser\bin\Debug\OutputBackup\20160401\Exchange_content_20160401.js' 已經存在。

2016-04-01 13:46:25,889 MainForm.DoCopyBackupFiles:116
  [WARN ] - 警告: 檔案複製時遇到問題. 訊息: 檔案 'D:\work\行情表web\StockTransformer\UenParser\bin\Debug\OutputBackup\20160401\Exchange_header_20160401.html' 已經存在。

2016-04-01 13:46:25,898 MainForm.DoCopyBackupFiles:116
  [WARN ] - 警告: 檔案複製時遇到問題. 訊息: 檔案 'D:\work\行情表web\StockTransformer\UenParser\bin\Debug\OutputBackup\20160401\Exchange_header_20160401.js' 已經存在。

2016-04-01 13:46:25,906 MainForm.DoCopyBackupFiles:116
  [WARN ] - 警告: 檔案複製時遇到問題. 訊息: 檔案 'D:\work\行情表web\StockTransformer\UenParser\bin\Debug\OutputBackup\20160401\Exchange_header_20160401.xml' 已經存在。

2016-04-01 13:46:26,066 MainForm.DoCopyBackupFiles:116
  [WARN ] - 警告: 檔案複製時遇到問題. 訊息: 檔案 'D:\work\行情表web\StockTransformer\UenParser\bin\Debug\OutputBackup\20160401\OTC_content_20160401.js' 已經存在。

2016-04-01 13:46:26,081 MainForm.DoCopyBackupFiles:116
  [WARN ] - 警告: 檔案複製時遇到問題. 訊息: 檔案 'D:\work\行情表web\StockTransformer\UenParser\bin\Debug\OutputBackup\20160401\OTC_header_20160401.js' 已經存在。

2016-04-01 13:46:26,090 MainForm.DoCopyBackupFiles:116
  [WARN ] - 警告: 檔案複製時遇到問題. 訊息: 檔案 'D:\work\行情表web\StockTransformer\UenParser\bin\Debug\OutputBackup\20160401\QRCode_20160401.png' 已經存在。

2016-04-01 13:46:28,382 MainForm.ProduceGenerateMarketPrice:280
  [INFO ] - 開始轉換興櫃檔案

2016-04-01 13:46:28,417 ExcelQueryExecutor.ValidateArgs:0
  [DEBUG] - ExcelQueryArgs = FileName: 'D:\work\行情表web\StockTransformer\UenParser\bin\Debug\Source\otcEMG.xls'; WorksheetName: 'Sheet1'; WorksheetIndex: ; StartRange: ; EndRange: ; Named Range: ; NoHeader: False; ColumnMappings: ; Transformations: , StrictMapping: None, UsePersistentConnection: False, TrimSpaces: None

2016-04-01 13:46:28,424 ExcelQueryExecutor..ctor:0
  [DEBUG] - Connection String: Provider=Microsoft.Jet.OLEDB.4.0;Data Source=D:\work\行情表web\StockTransformer\UenParser\bin\Debug\Source\otcEMG.xls;Extended Properties="Excel 8.0;HDR=YES;IMEX=1"

2016-04-01 13:46:28,518 ExcelQueryExecutor.LogSqlStatement:0
  [DEBUG] - SELECT * FROM [Sheet1$];

2016-04-01 13:47:12,139 MainForm.BackupFiles:81
  [INFO ] - 開始備份檔案，備份種類: Output

2016-04-01 13:47:12,169 MainForm.DoCopyBackupFiles:116
  [WARN ] - 警告: 檔案複製時遇到問題. 訊息: 檔案 'D:\work\行情表web\StockTransformer\UenParser\bin\Debug\OutputBackup\20160401\Emerging_content_20160401.js' 已經存在。

2016-04-01 13:47:12,180 MainForm.DoCopyBackupFiles:116
  [WARN ] - 警告: 檔案複製時遇到問題. 訊息: 檔案 'D:\work\行情表web\StockTransformer\UenParser\bin\Debug\OutputBackup\20160401\Exchange_content_20160401.js' 已經存在。

2016-04-01 13:47:12,191 MainForm.DoCopyBackupFiles:116
  [WARN ] - 警告: 檔案複製時遇到問題. 訊息: 檔案 'D:\work\行情表web\StockTransformer\UenParser\bin\Debug\OutputBackup\20160401\Exchange_header_20160401.html' 已經存在。

2016-04-01 13:47:12,203 MainForm.DoCopyBackupFiles:116
  [WARN ] - 警告: 檔案複製時遇到問題. 訊息: 檔案 'D:\work\行情表web\StockTransformer\UenParser\bin\Debug\OutputBackup\20160401\Exchange_header_20160401.js' 已經存在。

2016-04-01 13:47:12,212 MainForm.DoCopyBackupFiles:116
  [WARN ] - 警告: 檔案複製時遇到問題. 訊息: 檔案 'D:\work\行情表web\StockTransformer\UenParser\bin\Debug\OutputBackup\20160401\Exchange_header_20160401.xml' 已經存在。

2016-04-01 13:47:12,364 MainForm.DoCopyBackupFiles:116
  [WARN ] - 警告: 檔案複製時遇到問題. 訊息: 檔案 'D:\work\行情表web\StockTransformer\UenParser\bin\Debug\OutputBackup\20160401\OTC_content_20160401.js' 已經存在。

2016-04-01 13:47:12,377 MainForm.DoCopyBackupFiles:116
  [WARN ] - 警告: 檔案複製時遇到問題. 訊息: 檔案 'D:\work\行情表web\StockTransformer\UenParser\bin\Debug\OutputBackup\20160401\OTC_header_20160401.js' 已經存在。

2016-04-01 13:47:12,388 MainForm.DoCopyBackupFiles:116
  [WARN ] - 警告: 檔案複製時遇到問題. 訊息: 檔案 'D:\work\行情表web\StockTransformer\UenParser\bin\Debug\OutputBackup\20160401\QRCode_20160401.png' 已經存在。

2016-04-01 13:47:14,626 MainForm.ProduceGenerateMarketPrice:280
  [INFO ] - 開始轉換興櫃檔案

2016-04-01 13:47:14,656 ExcelQueryExecutor.ValidateArgs:0
  [DEBUG] - ExcelQueryArgs = FileName: 'D:\work\行情表web\StockTransformer\UenParser\bin\Debug\Source\otcEMG.xls'; WorksheetName: 'Sheet1'; WorksheetIndex: ; StartRange: ; EndRange: ; Named Range: ; NoHeader: False; ColumnMappings: ; Transformations: , StrictMapping: None, UsePersistentConnection: False, TrimSpaces: None

2016-04-01 13:47:14,667 ExcelQueryExecutor..ctor:0
  [DEBUG] - Connection String: Provider=Microsoft.Jet.OLEDB.4.0;Data Source=D:\work\行情表web\StockTransformer\UenParser\bin\Debug\Source\otcEMG.xls;Extended Properties="Excel 8.0;HDR=YES;IMEX=1"

2016-04-01 13:47:14,780 ExcelQueryExecutor.LogSqlStatement:0
  [DEBUG] - SELECT * FROM [Sheet1$];

2016-04-01 14:09:48,537 MainForm.BackupFiles:81
  [INFO ] - 開始備份檔案，備份種類: Output

2016-04-01 14:09:48,562 MainForm.DoCopyBackupFiles:116
  [WARN ] - 警告: 檔案複製時遇到問題. 訊息: 檔案 'D:\work\行情表web\StockTransformer\UenParser\bin\Debug\OutputBackup\20160401\Emerging_content_20160401.js' 已經存在。

2016-04-01 14:09:48,572 MainForm.DoCopyBackupFiles:116
  [WARN ] - 警告: 檔案複製時遇到問題. 訊息: 檔案 'D:\work\行情表web\StockTransformer\UenParser\bin\Debug\OutputBackup\20160401\Exchange_content_20160401.js' 已經存在。

2016-04-01 14:09:48,581 MainForm.DoCopyBackupFiles:116
  [WARN ] - 警告: 檔案複製時遇到問題. 訊息: 檔案 'D:\work\行情表web\StockTransformer\UenParser\bin\Debug\OutputBackup\20160401\Exchange_header_20160401.html' 已經存在。

2016-04-01 14:09:48,591 MainForm.DoCopyBackupFiles:116
  [WARN ] - 警告: 檔案複製時遇到問題. 訊息: 檔案 'D:\work\行情表web\StockTransformer\UenParser\bin\Debug\OutputBackup\20160401\Exchange_header_20160401.js' 已經存在。

2016-04-01 14:09:48,599 MainForm.DoCopyBackupFiles:116
  [WARN ] - 警告: 檔案複製時遇到問題. 訊息: 檔案 'D:\work\行情表web\StockTransformer\UenParser\bin\Debug\OutputBackup\20160401\Exchange_header_20160401.xml' 已經存在。

2016-04-01 14:09:48,607 MainForm.DoCopyBackupFiles:116
  [WARN ] - 警告: 檔案複製時遇到問題. 訊息: 檔案 'D:\work\行情表web\StockTransformer\UenParser\bin\Debug\OutputBackup\20160401\OTC_content_20160401.js' 已經存在。

2016-04-01 14:09:48,781 MainForm.DoCopyBackupFiles:116
  [WARN ] - 警告: 檔案複製時遇到問題. 訊息: 檔案 'D:\work\行情表web\StockTransformer\UenParser\bin\Debug\OutputBackup\20160401\OTC_header_20160401.js' 已經存在。

2016-04-01 14:09:48,793 MainForm.DoCopyBackupFiles:116
  [WARN ] - 警告: 檔案複製時遇到問題. 訊息: 檔案 'D:\work\行情表web\StockTransformer\UenParser\bin\Debug\OutputBackup\20160401\QRCode_20160401.png' 已經存在。

2016-04-01 14:09:50,860 MainForm.ProduceGenerateMarketPrice:280
  [INFO ] - 開始轉換興櫃檔案

2016-04-01 14:09:50,890 ExcelQueryExecutor.ValidateArgs:0
  [DEBUG] - ExcelQueryArgs = FileName: 'D:\work\行情表web\StockTransformer\UenParser\bin\Debug\Source\otcEMG.xls'; WorksheetName: 'Sheet1'; WorksheetIndex: ; StartRange: ; EndRange: ; Named Range: ; NoHeader: False; ColumnMappings: ; Transformations: , StrictMapping: None, UsePersistentConnection: False, TrimSpaces: None

2016-04-01 14:09:50,897 ExcelQueryExecutor..ctor:0
  [DEBUG] - Connection String: Provider=Microsoft.Jet.OLEDB.4.0;Data Source=D:\work\行情表web\StockTransformer\UenParser\bin\Debug\Source\otcEMG.xls;Extended Properties="Excel 8.0;HDR=YES;IMEX=1"

2016-04-01 14:09:50,994 ExcelQueryExecutor.LogSqlStatement:0
  [DEBUG] - SELECT * FROM [Sheet1$];

2016-04-01 14:11:33,148 MainForm.BackupFiles:81
  [INFO ] - 開始備份檔案，備份種類: Output

2016-04-01 14:11:33,174 MainForm.DoCopyBackupFiles:116
  [WARN ] - 警告: 檔案複製時遇到問題. 訊息: 檔案 'D:\work\行情表web\StockTransformer\UenParser\bin\Debug\OutputBackup\20160401\Emerging_content_20160401.js' 已經存在。

2016-04-01 14:11:33,184 MainForm.DoCopyBackupFiles:116
  [WARN ] - 警告: 檔案複製時遇到問題. 訊息: 檔案 'D:\work\行情表web\StockTransformer\UenParser\bin\Debug\OutputBackup\20160401\Exchange_content_20160401.js' 已經存在。

2016-04-01 14:11:33,194 MainForm.DoCopyBackupFiles:116
  [WARN ] - 警告: 檔案複製時遇到問題. 訊息: 檔案 'D:\work\行情表web\StockTransformer\UenParser\bin\Debug\OutputBackup\20160401\Exchange_header_20160401.html' 已經存在。

2016-04-01 14:11:33,203 MainForm.DoCopyBackupFiles:116
  [WARN ] - 警告: 檔案複製時遇到問題. 訊息: 檔案 'D:\work\行情表web\StockTransformer\UenParser\bin\Debug\OutputBackup\20160401\Exchange_header_20160401.js' 已經存在。

2016-04-01 14:11:33,211 MainForm.DoCopyBackupFiles:116
  [WARN ] - 警告: 檔案複製時遇到問題. 訊息: 檔案 'D:\work\行情表web\StockTransformer\UenParser\bin\Debug\OutputBackup\20160401\Exchange_header_20160401.xml' 已經存在。

2016-04-01 14:11:33,219 MainForm.DoCopyBackupFiles:116
  [WARN ] - 警告: 檔案複製時遇到問題. 訊息: 檔案 'D:\work\行情表web\StockTransformer\UenParser\bin\Debug\OutputBackup\20160401\OTC_content_20160401.js' 已經存在。

2016-04-01 14:11:33,390 MainForm.DoCopyBackupFiles:116
  [WARN ] - 警告: 檔案複製時遇到問題. 訊息: 檔案 'D:\work\行情表web\StockTransformer\UenParser\bin\Debug\OutputBackup\20160401\OTC_header_20160401.js' 已經存在。

2016-04-01 14:11:33,405 MainForm.DoCopyBackupFiles:116
  [WARN ] - 警告: 檔案複製時遇到問題. 訊息: 檔案 'D:\work\行情表web\StockTransformer\UenParser\bin\Debug\OutputBackup\20160401\QRCode_20160401.png' 已經存在。

2016-04-01 14:11:35,470 MainForm.ProduceGenerateMarketPrice:280
  [INFO ] - 開始轉換興櫃檔案

2016-04-01 14:11:35,504 ExcelQueryExecutor.ValidateArgs:0
  [DEBUG] - ExcelQueryArgs = FileName: 'D:\work\行情表web\StockTransformer\UenParser\bin\Debug\Source\otcEMG.xls'; WorksheetName: 'Sheet1'; WorksheetIndex: ; StartRange: ; EndRange: ; Named Range: ; NoHeader: False; ColumnMappings: ; Transformations: , StrictMapping: None, UsePersistentConnection: False, TrimSpaces: None

2016-04-01 14:11:35,514 ExcelQueryExecutor..ctor:0
  [DEBUG] - Connection String: Provider=Microsoft.Jet.OLEDB.4.0;Data Source=D:\work\行情表web\StockTransformer\UenParser\bin\Debug\Source\otcEMG.xls;Extended Properties="Excel 8.0;HDR=YES;IMEX=1"

2016-04-01 14:11:35,629 ExcelQueryExecutor.LogSqlStatement:0
  [DEBUG] - SELECT * FROM [Sheet1$];

2016-04-01 14:11:39,861 MainForm.ProduceGenerateMarketPrice:285
  [INFO ] - 興櫃JS產生完成

2016-04-01 14:11:40,077 MainForm.AppendHeaderInfoIntoHTML:206
  [ERROR] - 錯誤: 表頭資料寫入index.html失敗. 訊息: 找不到路徑 'D:\work\行情表web\StockTransformer\UenParser\bin\Debug\Pack\20160401\' 的一部分。

2016-04-01 14:11:40,098 MainForm.AppendHeaderInfoIntoHTML:206
  [ERROR] - 錯誤: 表頭資料寫入index.html失敗. 訊息: 找不到路徑 'D:\work\行情表web\StockTransformer\UenParser\bin\Debug\Pack\20160401\' 的一部分。

2016-04-01 14:11:40,134 MainForm.BackupFiles:81
  [INFO ] - 開始備份檔案，備份種類: Source

2016-04-01 14:11:40,151 MainForm.DoCopyBackupFiles:116
  [WARN ] - 警告: 檔案複製時遇到問題. 訊息: 檔案 'D:\work\行情表web\StockTransformer\UenParser\bin\Debug\SourceBackup\20160401\(ReadMe)_20160401.txt' 已經存在。

2016-04-01 14:11:40,168 MainForm.DoCopyBackupFiles:116
  [WARN ] - 警告: 檔案複製時遇到問題. 訊息: 檔案 'D:\work\行情表web\StockTransformer\UenParser\bin\Debug\SourceBackup\20160401\Nstock0_20160401.prn' 已經存在。

2016-04-01 14:11:40,185 MainForm.DoCopyBackupFiles:116
  [WARN ] - 警告: 檔案複製時遇到問題. 訊息: 檔案 'D:\work\行情表web\StockTransformer\UenParser\bin\Debug\SourceBackup\20160401\Nstock4_20160401.prn' 已經存在。

2016-04-01 14:11:40,203 MainForm.DoCopyBackupFiles:116
  [WARN ] - 警告: 檔案複製時遇到問題. 訊息: 檔案 'D:\work\行情表web\StockTransformer\UenParser\bin\Debug\SourceBackup\20160401\otcEMG_20160401.xls' 已經存在。

2016-04-01 14:11:40,219 MainForm.DoCopyBackupFiles:116
  [WARN ] - 警告: 檔案複製時遇到問題. 訊息: 檔案 'D:\work\行情表web\StockTransformer\UenParser\bin\Debug\SourceBackup\20160401\STKSECTINX_20160401.TXT' 已經存在。

2016-04-01 14:11:40,323 MainForm.DoCopyBackupFiles:116
  [WARN ] - 警告: 檔案複製時遇到問題. 訊息: 檔案 'D:\work\行情表web\StockTransformer\UenParser\bin\Debug\SourceBackup\20160401\STKT1QUOTESN_20160401.TXT' 已經存在。

2016-04-01 14:11:40,339 MainForm.DoCopyBackupFiles:116
  [WARN ] - 警告: 檔案複製時遇到問題. 訊息: 檔案 'D:\work\行情表web\StockTransformer\UenParser\bin\Debug\SourceBackup\20160401\STKT1SUMMARY_20160401.TXT' 已經存在。

2016-04-01 14:11:40,348 MainForm.BackupFiles:90
  [INFO ] - Source 資料夾 今日已備份!

2016-04-01 14:11:40,349 MainForm.BackupFiles:81
  [INFO ] - 開始備份檔案，備份種類: Output

2016-04-01 14:11:40,365 MainForm.DoCopyBackupFiles:116
  [WARN ] - 警告: 檔案複製時遇到問題. 訊息: 檔案 'D:\work\行情表web\StockTransformer\UenParser\bin\Debug\OutputBackup\20160401\Emerging_content_20160401.js' 已經存在。

2016-04-01 14:11:40,382 MainForm.DoCopyBackupFiles:116
  [WARN ] - 警告: 檔案複製時遇到問題. 訊息: 檔案 'D:\work\行情表web\StockTransformer\UenParser\bin\Debug\OutputBackup\20160401\Exchange_content_20160401.js' 已經存在。

2016-04-01 14:11:40,539 MainForm.DoCopyBackupFiles:116
  [WARN ] - 警告: 檔案複製時遇到問題. 訊息: 檔案 'D:\work\行情表web\StockTransformer\UenParser\bin\Debug\OutputBackup\20160401\Exchange_header_20160401.html' 已經存在。

2016-04-01 14:11:40,559 MainForm.DoCopyBackupFiles:116
  [WARN ] - 警告: 檔案複製時遇到問題. 訊息: 檔案 'D:\work\行情表web\StockTransformer\UenParser\bin\Debug\OutputBackup\20160401\Exchange_header_20160401.js' 已經存在。

2016-04-01 14:11:40,577 MainForm.DoCopyBackupFiles:116
  [WARN ] - 警告: 檔案複製時遇到問題. 訊息: 檔案 'D:\work\行情表web\StockTransformer\UenParser\bin\Debug\OutputBackup\20160401\Exchange_header_20160401.xml' 已經存在。

2016-04-01 14:11:40,594 MainForm.DoCopyBackupFiles:116
  [WARN ] - 警告: 檔案複製時遇到問題. 訊息: 檔案 'D:\work\行情表web\StockTransformer\UenParser\bin\Debug\OutputBackup\20160401\OTC_content_20160401.js' 已經存在。

2016-04-01 14:11:40,611 MainForm.DoCopyBackupFiles:116
  [WARN ] - 警告: 檔案複製時遇到問題. 訊息: 檔案 'D:\work\行情表web\StockTransformer\UenParser\bin\Debug\OutputBackup\20160401\OTC_header_20160401.js' 已經存在。

2016-04-01 14:11:40,723 MainForm.DoCopyBackupFiles:116
  [WARN ] - 警告: 檔案複製時遇到問題. 訊息: 檔案 'D:\work\行情表web\StockTransformer\UenParser\bin\Debug\OutputBackup\20160401\QRCode_20160401.png' 已經存在。

2016-04-01 14:11:40,724 MainForm.BackupFiles:90
  [INFO ] - Output 資料夾 今日已備份!

2016-04-01 15:09:31,932 MainForm.BackupFiles:81
  [INFO ] - 開始備份檔案，備份種類: Output

2016-04-01 15:09:31,963 MainForm.DoCopyBackupFiles:116
  [WARN ] - 警告: 檔案複製時遇到問題. 訊息: 檔案 'D:\work\行情表web\StockTransformer\UenParser\bin\Debug\OutputBackup\20160401\Emerging_content_20160401.js' 已經存在。

2016-04-01 15:09:31,978 MainForm.DoCopyBackupFiles:116
  [WARN ] - 警告: 檔案複製時遇到問題. 訊息: 檔案 'D:\work\行情表web\StockTransformer\UenParser\bin\Debug\OutputBackup\20160401\Exchange_content_20160401.js' 已經存在。

2016-04-01 15:09:31,978 MainForm.DoCopyBackupFiles:116
  [WARN ] - 警告: 檔案複製時遇到問題. 訊息: 檔案 'D:\work\行情表web\StockTransformer\UenParser\bin\Debug\OutputBackup\20160401\Exchange_header_20160401.html' 已經存在。

2016-04-01 15:09:31,994 MainForm.DoCopyBackupFiles:116
  [WARN ] - 警告: 檔案複製時遇到問題. 訊息: 檔案 'D:\work\行情表web\StockTransformer\UenParser\bin\Debug\OutputBackup\20160401\Exchange_header_20160401.js' 已經存在。

2016-04-01 15:09:31,994 MainForm.DoCopyBackupFiles:116
  [WARN ] - 警告: 檔案複製時遇到問題. 訊息: 檔案 'D:\work\行情表web\StockTransformer\UenParser\bin\Debug\OutputBackup\20160401\Exchange_header_20160401.xml' 已經存在。

2016-04-01 15:09:32,029 MainForm.DoCopyBackupFiles:116
  [WARN ] - 警告: 檔案複製時遇到問題. 訊息: 檔案 'D:\work\行情表web\StockTransformer\UenParser\bin\Debug\OutputBackup\20160401\OTC_content_20160401.js' 已經存在。

2016-04-01 15:09:32,194 MainForm.DoCopyBackupFiles:116
  [WARN ] - 警告: 檔案複製時遇到問題. 訊息: 檔案 'D:\work\行情表web\StockTransformer\UenParser\bin\Debug\OutputBackup\20160401\OTC_header_20160401.js' 已經存在。

2016-04-01 15:09:32,209 MainForm.DoCopyBackupFiles:116
  [WARN ] - 警告: 檔案複製時遇到問題. 訊息: 檔案 'D:\work\行情表web\StockTransformer\UenParser\bin\Debug\OutputBackup\20160401\QRCode_20160401.png' 已經存在。

2016-04-01 15:09:34,377 MainForm.ProduceGenerateMarketPrice:262
  [INFO ] - 開始轉換上市檔案

2016-04-01 15:09:34,377 ExchangePriceGenerator.ReadLastdayData:107
  [INFO ] - 取得最近一次的Output備份檔，備份檔路徑: D:\work\行情表web\StockTransformer\UenParser\bin\Debug\OutputBackup\20160331

2016-04-01 15:09:34,377 ExchangePriceGenerator.ReadLastdayData:115
  [DEBUG] - 讀取檔案: D:\work\行情表web\StockTransformer\UenParser\bin\Debug\OutputBackup\20160331\Exchange1_20160331.js 內容

2016-04-01 15:09:34,392 ExchangePriceGenerator.ReadLastdayData:122
  [DEBUG] - 檔案讀取完成

2016-04-01 15:09:34,392 ExchangePriceGenerator.ReadLastdayData:130
  [DEBUG] - 將讀取到的JSON字串轉為ExchangeContentModel[]

2016-04-01 15:09:34,470 ExchangePriceGenerator.ReadTodayData:66
  [INFO ] - 取得今日的上市Source檔，檔案路徑: D:\work\行情表web\StockTransformer\UenParser\bin\Debug\Source\Nstock0.prn

2016-04-01 15:09:34,470 ExchangePriceGenerator.ReadTodayData:66
  [INFO ] - 取得今日的上市Source檔，檔案路徑: D:\work\行情表web\StockTransformer\UenParser\bin\Debug\Source\Nstock4.prn

2016-04-01 15:09:34,470 ExchangePriceGenerator.Process:136
  [DEBUG] - 開始parsing上市檔案，pattern: header

2016-04-01 15:09:34,501 ExchangePriceGenerator.GenerateJson:184
  [DEBUG] - parsing上市header檔完成，共 51 筆

2016-04-01 15:09:34,501 ExchangePriceGenerator.Process:136
  [DEBUG] - 開始parsing上市檔案，pattern: content

2016-04-01 15:09:34,517 ExchangePriceGenerator.Process:168
  [WARN ] - 上市 content 檔第 940 行，有不符合pattern的格式

2016-04-01 15:09:34,595 ExchangePriceGenerator.GenerateJson:186
  [DEBUG] - parsing上市content檔完成，共 939 筆

2016-04-01 15:09:34,595 ExchangePriceGenerator.PutHeaderDataToModel:284
  [DEBUG] - 逐一將parsing結果放到對應的ExchangeHeaderModel Attribute

2016-04-01 15:09:34,611 ExchangePriceGenerator.PutContentDataToModel:201
  [DEBUG] - 逐一將parsing結果放到對應的ExchangeContentModel Attribute

2016-04-01 15:09:34,673 ExchangePriceGenerator.CheckSymbol:612
  [WARN ] - 指數轉型態時發生錯誤，Error Type: System.FormatException

2016-04-01 15:09:34,751 ExchangePriceGenerator.CheckSymbol:612
  [WARN ] - 指數轉型態時發生錯誤，Error Type: System.FormatException

2016-04-01 15:09:34,829 ExchangePriceGenerator.CheckSymbol:612
  [WARN ] - 指數轉型態時發生錯誤，Error Type: System.FormatException

2016-04-01 15:09:34,907 ExchangePriceGenerator.CheckSymbol:612
  [WARN ] - 指數轉型態時發生錯誤，Error Type: System.FormatException

2016-04-01 15:09:34,985 ExchangePriceGenerator.CheckSymbol:612
  [WARN ] - 指數轉型態時發生錯誤，Error Type: System.FormatException

2016-04-01 15:09:35,047 ExchangePriceGenerator.CheckSymbol:612
  [WARN ] - 指數轉型態時發生錯誤，Error Type: System.FormatException

2016-04-01 15:09:35,110 ExchangePriceGenerator.CheckSymbol:612
  [WARN ] - 指數轉型態時發生錯誤，Error Type: System.FormatException

2016-04-01 15:09:35,344 MainForm.ProduceGenerateMarketPrice:268
  [INFO ] - 上市JS產生完成

2016-04-01 15:09:35,344 MainForm.ProduceGenerateMarketPrice:271
  [INFO ] - 開始轉換上櫃檔案

2016-04-01 15:09:35,344 OTCPriceGenerator.ReadLastdayData:94
  [INFO ] - 取得最近一次的Output備份檔，備份檔路徑: D:\work\行情表web\StockTransformer\UenParser\bin\Debug\OutputBackup\20160331

2016-04-01 15:09:35,344 OTCPriceGenerator.ReadLastdayData:102
  [DEBUG] - 讀取檔案: D:\work\行情表web\StockTransformer\UenParser\bin\Debug\OutputBackup\20160331\OTC1_20160331.js 內容

2016-04-01 15:09:35,344 OTCPriceGenerator.ReadLastdayData:109
  [DEBUG] - 檔案讀取完成

2016-04-01 15:09:35,359 OTCPriceGenerator.ReadLastdayData:117
  [DEBUG] - 將讀取到的JSON字串轉為OTCContentModel[]

2016-04-01 15:09:35,375 OTCPriceGenerator.ReadTodayData:49
  [INFO ] - 取得今日的上櫃Source檔，檔案路徑: D:\work\行情表web\StockTransformer\UenParser\bin\Debug\Source\STKSECTINX.TXT

2016-04-01 15:09:35,375 OTCPriceGenerator.ReadTodayData:49
  [INFO ] - 取得今日的上櫃Source檔，檔案路徑: D:\work\行情表web\StockTransformer\UenParser\bin\Debug\Source\STKT1QUOTESN.TXT

2016-04-01 15:09:35,406 OTCPriceGenerator.Process:122
  [DEBUG] - 開始parsing上櫃檔案，pattern: header

2016-04-01 15:09:35,406 OTCPriceGenerator.Process:155
  [WARN ] - 上櫃 header 檔第 1 行，有不符合pattern的格式

2016-04-01 15:09:35,406 OTCPriceGenerator.GenerateJson:171
  [DEBUG] - parsing上櫃header檔完成，共 19 筆

2016-04-01 15:09:35,406 OTCPriceGenerator.Process:122
  [DEBUG] - 開始parsing上櫃檔案，pattern: content

2016-04-01 15:09:35,453 OTCPriceGenerator.GenerateJson:173
  [DEBUG] - parsing上櫃content檔完成，共 3800 筆

2016-04-01 15:09:35,453 OTCPriceGenerator.PutHeaderDataToModel:187
  [DEBUG] - 逐一將parsing結果放到對應的OTCHeaderModel Attribute

2016-04-01 15:09:35,453 OTCPriceGenerator.PutContentDataToModel:208
  [DEBUG] - 逐一將parsing結果放到對應的OTCContentModel Attribute

2016-04-01 15:09:38,993 MainForm.ProduceGenerateMarketPrice:277
  [INFO ] - 上櫃JS產生完成

2016-04-01 15:09:38,993 MainForm.ProduceGenerateMarketPrice:280
  [INFO ] - 開始轉換興櫃檔案

2016-04-01 15:09:39,009 ExcelQueryExecutor.ValidateArgs:0
  [DEBUG] - ExcelQueryArgs = FileName: 'D:\work\行情表web\StockTransformer\UenParser\bin\Debug\Source\otcEMG.xls'; WorksheetName: 'Sheet1'; WorksheetIndex: ; StartRange: ; EndRange: ; Named Range: ; NoHeader: False; ColumnMappings: ; Transformations: , StrictMapping: None, UsePersistentConnection: False, TrimSpaces: None

2016-04-01 15:09:39,009 ExcelQueryExecutor..ctor:0
  [DEBUG] - Connection String: Provider=Microsoft.Jet.OLEDB.4.0;Data Source=D:\work\行情表web\StockTransformer\UenParser\bin\Debug\Source\otcEMG.xls;Extended Properties="Excel 8.0;HDR=YES;IMEX=1"

2016-04-01 15:09:39,102 ExcelQueryExecutor.LogSqlStatement:0
  [DEBUG] - SELECT * FROM [Sheet1$];

2016-04-01 15:09:46,824 MainForm.ProduceGenerateMarketPrice:285
  [INFO ] - 興櫃JS產生完成

2016-04-01 15:09:47,009 MainForm.AppendHeaderInfoIntoHTML:206
  [ERROR] - 錯誤: 表頭資料寫入index.html失敗. 訊息: 找不到路徑 'D:\work\行情表web\StockTransformer\UenParser\bin\Debug\Pack\20160401\' 的一部分。

2016-04-01 15:09:47,025 MainForm.AppendHeaderInfoIntoHTML:206
  [ERROR] - 錯誤: 表頭資料寫入index.html失敗. 訊息: 找不到路徑 'D:\work\行情表web\StockTransformer\UenParser\bin\Debug\Pack\20160401\' 的一部分。

2016-04-01 15:09:47,071 MainForm.BackupFiles:81
  [INFO ] - 開始備份檔案，備份種類: Source

2016-04-01 15:09:47,087 MainForm.DoCopyBackupFiles:116
  [WARN ] - 警告: 檔案複製時遇到問題. 訊息: 檔案 'D:\work\行情表web\StockTransformer\UenParser\bin\Debug\SourceBackup\20160401\(ReadMe)_20160401.txt' 已經存在。

2016-04-01 15:09:47,103 MainForm.DoCopyBackupFiles:116
  [WARN ] - 警告: 檔案複製時遇到問題. 訊息: 檔案 'D:\work\行情表web\StockTransformer\UenParser\bin\Debug\SourceBackup\20160401\Nstock0_20160401.prn' 已經存在。

2016-04-01 15:09:47,118 MainForm.DoCopyBackupFiles:116
  [WARN ] - 警告: 檔案複製時遇到問題. 訊息: 檔案 'D:\work\行情表web\StockTransformer\UenParser\bin\Debug\SourceBackup\20160401\Nstock4_20160401.prn' 已經存在。

2016-04-01 15:09:47,134 MainForm.DoCopyBackupFiles:116
  [WARN ] - 警告: 檔案複製時遇到問題. 訊息: 檔案 'D:\work\行情表web\StockTransformer\UenParser\bin\Debug\SourceBackup\20160401\otcEMG_20160401.xls' 已經存在。

2016-04-01 15:09:47,149 MainForm.DoCopyBackupFiles:116
  [WARN ] - 警告: 檔案複製時遇到問題. 訊息: 檔案 'D:\work\行情表web\StockTransformer\UenParser\bin\Debug\SourceBackup\20160401\STKSECTINX_20160401.TXT' 已經存在。

2016-04-01 15:09:47,290 MainForm.DoCopyBackupFiles:116
  [WARN ] - 警告: 檔案複製時遇到問題. 訊息: 檔案 'D:\work\行情表web\StockTransformer\UenParser\bin\Debug\SourceBackup\20160401\STKT1QUOTESN_20160401.TXT' 已經存在。

2016-04-01 15:09:47,305 MainForm.DoCopyBackupFiles:116
  [WARN ] - 警告: 檔案複製時遇到問題. 訊息: 檔案 'D:\work\行情表web\StockTransformer\UenParser\bin\Debug\SourceBackup\20160401\STKT1SUMMARY_20160401.TXT' 已經存在。

2016-04-01 15:09:47,321 MainForm.BackupFiles:90
  [INFO ] - Source 資料夾 今日已備份!

2016-04-01 15:09:47,321 MainForm.BackupFiles:81
  [INFO ] - 開始備份檔案，備份種類: Output

2016-04-01 15:09:47,337 MainForm.DoCopyBackupFiles:116
  [WARN ] - 警告: 檔案複製時遇到問題. 訊息: 檔案 'D:\work\行情表web\StockTransformer\UenParser\bin\Debug\OutputBackup\20160401\Emerging_content_20160401.js' 已經存在。

2016-04-01 15:09:47,368 MainForm.DoCopyBackupFiles:116
  [WARN ] - 警告: 檔案複製時遇到問題. 訊息: 檔案 'D:\work\行情表web\StockTransformer\UenParser\bin\Debug\OutputBackup\20160401\Exchange_content_20160401.js' 已經存在。

2016-04-01 15:09:47,493 MainForm.DoCopyBackupFiles:116
  [WARN ] - 警告: 檔案複製時遇到問題. 訊息: 檔案 'D:\work\行情表web\StockTransformer\UenParser\bin\Debug\OutputBackup\20160401\Exchange_header_20160401.html' 已經存在。

2016-04-01 15:09:47,508 MainForm.DoCopyBackupFiles:116
  [WARN ] - 警告: 檔案複製時遇到問題. 訊息: 檔案 'D:\work\行情表web\StockTransformer\UenParser\bin\Debug\OutputBackup\20160401\Exchange_header_20160401.js' 已經存在。

2016-04-01 15:09:47,524 MainForm.DoCopyBackupFiles:116
  [WARN ] - 警告: 檔案複製時遇到問題. 訊息: 檔案 'D:\work\行情表web\StockTransformer\UenParser\bin\Debug\OutputBackup\20160401\Exchange_header_20160401.xml' 已經存在。

2016-04-01 15:09:47,555 MainForm.DoCopyBackupFiles:116
  [WARN ] - 警告: 檔案複製時遇到問題. 訊息: 檔案 'D:\work\行情表web\StockTransformer\UenParser\bin\Debug\OutputBackup\20160401\OTC_content_20160401.js' 已經存在。

2016-04-01 15:09:47,571 MainForm.DoCopyBackupFiles:116
  [WARN ] - 警告: 檔案複製時遇到問題. 訊息: 檔案 'D:\work\行情表web\StockTransformer\UenParser\bin\Debug\OutputBackup\20160401\OTC_header_20160401.js' 已經存在。

2016-04-01 15:09:47,695 MainForm.DoCopyBackupFiles:116
  [WARN ] - 警告: 檔案複製時遇到問題. 訊息: 檔案 'D:\work\行情表web\StockTransformer\UenParser\bin\Debug\OutputBackup\20160401\QRCode_20160401.png' 已經存在。

2016-04-01 15:09:47,695 MainForm.BackupFiles:90
  [INFO ] - Output 資料夾 今日已備份!

2016-04-01 15:09:50,055 RandomCodeGenerator.ProduceOutput:25
  [INFO ] - 產生亂碼名稱完成，檔名為: 16DAC.png

2016-04-01 15:09:50,142 QRCodeGenerator.ProduceOutput:59
  [INFO ] - 繪製 QRCode 完成，Url位址為: http://udn.com/uen/16DAC/

