2016-03-24 11:38:34,881 MainForm.btnExecuteProcess_Click:161
  [INFO ] - 開始轉換上市檔案

2016-03-24 11:38:34,899 ExchangeMarket.ReadLastdayData:100
  [INFO ] - 取得最近一次的Output備份檔，備份檔路徑: D:\work\行情表web\StockTransformer\UenParser\bin\Debug\OutputBackup\20160322

2016-03-24 11:38:34,903 ExchangeMarket.ReadLastdayData:108
  [DEBUG] - 讀取檔案: D:\work\行情表web\StockTransformer\UenParser\bin\Debug\OutputBackup\20160322\Exchange1_20160322.js 內容

2016-03-24 11:38:34,940 ExchangeMarket.ReadLastdayData:115
  [DEBUG] - 檔案讀取完成

2016-03-24 11:38:34,941 ExchangeMarket.ReadLastdayData:123
  [DEBUG] - 將讀取到的JSON字串轉為ExchangeContentModel[]

2016-03-24 11:38:35,024 ExchangeMarket.ReadTodayData:59
  [INFO ] - 取得今日的Source檔，檔案路徑: D:\work\行情表web\StockTransformer\UenParser\bin\Debug\Source\Nstock0.prn

2016-03-24 11:38:35,027 ExchangeMarket.ReadTodayData:59
  [INFO ] - 取得今日的Source檔，檔案路徑: D:\work\行情表web\StockTransformer\UenParser\bin\Debug\Source\Nstock4.prn

2016-03-24 11:38:35,030 ExchangeMarket.Process:129
  [DEBUG] - 開始parsing檔案，pattern: header

2016-03-24 11:38:35,048 ExchangeMarket.GenerateJson:177
  [DEBUG] - parsing檔案完成，pattern: header，共 51 筆

2016-03-24 11:38:35,089 ExchangeMarket.Process:129
  [DEBUG] - 開始parsing檔案，pattern: content

2016-03-24 11:38:35,124 ExchangeMarket.Process:161
  [WARN ] - content 檔第 944 行，有不符合pattern的格式

2016-03-24 11:38:35,125 ExchangeMarket.GenerateJson:179
  [DEBUG] - parsing檔案完成，pattern: content，共 943 筆

2016-03-24 11:38:35,128 ExchangeMarket.PutHeaderDataToModel:284
  [DEBUG] - 逐一將parsing結果放到對應的ExchangeHeaderModel Attribute

2016-03-24 11:38:35,132 ExchangeMarket.PutContentDataToModel:194
  [DEBUG] - 逐一將parsing結果放到對應的ExchangeContentModel Attribute

2016-03-24 11:38:36,139 MainForm.btnExecuteProcess_Click:167
  [INFO ] - 上市JS產生完成

2016-03-24 11:38:36,141 MainForm.BackupFiles:44
  [INFO ] - 開始備份檔案，備份種類: Source

2016-03-24 11:38:36,354 MainForm.BackupFiles:77
  [INFO ] - Source 資料夾備份完成，共 21 個檔案!

2016-03-24 11:38:36,354 MainForm.BackupFiles:44
  [INFO ] - 開始備份檔案，備份種類: Output

2016-03-24 11:38:36,393 MainForm.BackupFiles:77
  [INFO ] - Output 資料夾備份完成，共 5 個檔案!

2016-03-24 14:07:34,551 MainForm.btnExecuteProcess_Click:170
  [INFO ] - 開始轉換上櫃檔案

2016-03-24 14:07:34,568 OTCMarket.ReadTodayData:48
  [INFO ] - 取得今日的上櫃Source檔，檔案路徑: D:\work\行情表web\StockTransformer\UenParser\bin\Debug\Source\STKSECTINX.TXT

2016-03-24 14:07:34,572 OTCMarket.ReadTodayData:48
  [INFO ] - 取得今日的上櫃Source檔，檔案路徑: D:\work\行情表web\StockTransformer\UenParser\bin\Debug\Source\STKT1QUOTESN.TXT

2016-03-24 14:07:37,891 MainForm.btnExecuteProcess_Click:176
  [INFO ] - 上櫃JS產生完成

2016-03-24 14:07:37,892 MainForm.BackupFiles:44
  [INFO ] - 開始備份檔案，備份種類: Source

2016-03-24 14:07:37,912 MainForm.BackupFiles:72
  [INFO ] - Source 資料夾 今日已備份!

2016-03-24 14:07:37,913 MainForm.BackupFiles:44
  [INFO ] - 開始備份檔案，備份種類: Output

2016-03-24 14:07:37,914 MainForm.BackupFiles:72
  [INFO ] - Output 資料夾 今日已備份!

2016-03-24 14:11:00,224 MainForm.btnExecuteProcess_Click:170
  [INFO ] - 開始轉換上櫃檔案

2016-03-24 14:11:00,241 OTCMarket.ReadLastdayData:93
  [INFO ] - 取得最近一次的Output備份檔，備份檔路徑: D:\work\行情表web\StockTransformer\UenParser\bin\Debug\OutputBackup\20160323

2016-03-24 14:16:55,420 MainForm.btnExecuteProcess_Click:170
  [INFO ] - 開始轉換上櫃檔案

2016-03-24 14:16:55,435 OTCMarket.ReadLastdayData:93
  [INFO ] - 取得最近一次的Output備份檔，備份檔路徑: D:\work\行情表web\StockTransformer\UenParser\bin\Debug\OutputBackup\20160323

2016-03-24 14:16:55,440 OTCMarket.ReadLastdayData:101
  [DEBUG] - 讀取檔案: D:\work\行情表web\StockTransformer\UenParser\bin\Debug\OutputBackup\20160323\Exchange1_20160323.js 內容

2016-03-24 14:16:55,487 OTCMarket.ReadLastdayData:108
  [DEBUG] - 檔案讀取完成

2016-03-24 14:18:35,367 MainForm.btnExecuteProcess_Click:170
  [INFO ] - 開始轉換上櫃檔案

2016-03-24 14:18:35,382 OTCMarket.ReadLastdayData:93
  [INFO ] - 取得最近一次的Output備份檔，備份檔路徑: D:\work\行情表web\StockTransformer\UenParser\bin\Debug\OutputBackup\20160323

2016-03-24 14:18:35,386 OTCMarket.ReadLastdayData:101
  [DEBUG] - 讀取檔案: D:\work\行情表web\StockTransformer\UenParser\bin\Debug\OutputBackup\20160323\OTC1_20160323.js 內容

2016-03-24 14:18:35,389 OTCMarket.ReadLastdayData:108
  [DEBUG] - 檔案讀取完成

2016-03-24 14:19:57,617 MainForm.btnExecuteProcess_Click:170
  [INFO ] - 開始轉換上櫃檔案

2016-03-24 14:19:57,635 OTCMarket.ReadLastdayData:94
  [INFO ] - 取得最近一次的Output備份檔，備份檔路徑: D:\work\行情表web\StockTransformer\UenParser\bin\Debug\OutputBackup\20160323

2016-03-24 14:19:57,639 OTCMarket.ReadLastdayData:102
  [DEBUG] - 讀取檔案: D:\work\行情表web\StockTransformer\UenParser\bin\Debug\OutputBackup\20160323\OTC1_20160323.js 內容

2016-03-24 14:19:57,642 OTCMarket.ReadLastdayData:109
  [DEBUG] - 檔案讀取完成

2016-03-24 14:23:10,616 MainForm.btnExecuteProcess_Click:170
  [INFO ] - 開始轉換上櫃檔案

2016-03-24 14:23:10,632 OTCMarket.ReadTodayData:49
  [INFO ] - 取得今日的上櫃Source檔，檔案路徑: D:\work\行情表web\StockTransformer\UenParser\bin\Debug\Source\STKSECTINX.TXT

2016-03-24 14:23:10,636 OTCMarket.ReadTodayData:49
  [INFO ] - 取得今日的上櫃Source檔，檔案路徑: D:\work\行情表web\StockTransformer\UenParser\bin\Debug\Source\STKT1QUOTESN.TXT

2016-03-24 14:23:13,947 MainForm.btnExecuteProcess_Click:176
  [INFO ] - 上櫃JS產生完成

2016-03-24 14:23:13,948 MainForm.BackupFiles:44
  [INFO ] - 開始備份檔案，備份種類: Source

2016-03-24 14:23:13,968 MainForm.BackupFiles:72
  [INFO ] - Source 資料夾 今日已備份!

2016-03-24 14:23:13,969 MainForm.BackupFiles:44
  [INFO ] - 開始備份檔案，備份種類: Output

2016-03-24 14:23:13,970 MainForm.BackupFiles:72
  [INFO ] - Output 資料夾 今日已備份!

2016-03-24 14:27:05,284 MainForm.btnExecuteProcess_Click:170
  [INFO ] - 開始轉換上櫃檔案

2016-03-24 14:27:05,302 OTCMarket.ReadLastdayData:94
  [INFO ] - 取得最近一次的Output備份檔，備份檔路徑: D:\work\行情表web\StockTransformer\UenParser\bin\Debug\OutputBackup\20160323

2016-03-24 14:27:05,306 OTCMarket.ReadLastdayData:102
  [DEBUG] - 讀取檔案: D:\work\行情表web\StockTransformer\UenParser\bin\Debug\OutputBackup\20160323\OTC1_20160323.js 內容

2016-03-24 14:27:05,310 OTCMarket.ReadLastdayData:109
  [DEBUG] - 檔案讀取完成

2016-03-24 14:49:30,099 OTCMarket.ReadLastdayData:117
  [DEBUG] - 將讀取到的JSON字串轉為ExchangeContentModel[]

2016-03-24 14:50:11,916 MainForm.btnExecuteProcess_Click:170
  [INFO ] - 開始轉換上櫃檔案

2016-03-24 14:50:11,933 OTCMarket.ReadLastdayData:94
  [INFO ] - 取得最近一次的Output備份檔，備份檔路徑: D:\work\行情表web\StockTransformer\UenParser\bin\Debug\OutputBackup\20160323

2016-03-24 14:50:11,938 OTCMarket.ReadLastdayData:102
  [DEBUG] - 讀取檔案: D:\work\行情表web\StockTransformer\UenParser\bin\Debug\OutputBackup\20160323\OTC1_20160323.js 內容

2016-03-24 14:50:11,941 OTCMarket.ReadLastdayData:109
  [DEBUG] - 檔案讀取完成

2016-03-24 14:50:13,938 OTCMarket.ReadLastdayData:117
  [DEBUG] - 將讀取到的JSON字串轉為ExchangeContentModel[]

2016-03-24 15:25:41,024 MainForm.btnExecuteProcess_Click:170
  [INFO ] - 開始轉換上櫃檔案

2016-03-24 15:25:41,042 OTCMarket.ReadLastdayData:94
  [INFO ] - 取得最近一次的Output備份檔，備份檔路徑: D:\work\行情表web\StockTransformer\UenParser\bin\Debug\OutputBackup\20160323

2016-03-24 15:25:41,046 OTCMarket.ReadLastdayData:102
  [DEBUG] - 讀取檔案: D:\work\行情表web\StockTransformer\UenParser\bin\Debug\OutputBackup\20160323\OTC1_20160323.js 內容

2016-03-24 15:25:41,049 OTCMarket.ReadLastdayData:109
  [DEBUG] - 檔案讀取完成

2016-03-24 15:25:43,701 OTCMarket.ReadLastdayData:117
  [DEBUG] - 將讀取到的JSON字串轉為OTCContentModel[]

2016-03-24 15:25:43,752 OTCMarket.ReadTodayData:49
  [INFO ] - 取得今日的上櫃Source檔，檔案路徑: D:\work\行情表web\StockTransformer\UenParser\bin\Debug\Source\STKSECTINX.TXT

2016-03-24 15:25:43,754 OTCMarket.ReadTodayData:49
  [INFO ] - 取得今日的上櫃Source檔，檔案路徑: D:\work\行情表web\StockTransformer\UenParser\bin\Debug\Source\STKT1QUOTESN.TXT

2016-03-24 15:25:43,759 OTCMarket.Process:122
  [DEBUG] - 開始parsing上櫃檔案，pattern: header

2016-03-24 15:25:43,763 OTCMarket.Process:155
  [WARN ] - 上櫃 header 檔第 1 行，有不符合pattern的格式

2016-03-24 15:25:43,766 OTCMarket.GenerateJson:171
  [DEBUG] - parsing上櫃header檔完成，共 19 筆

2016-03-24 15:25:43,766 OTCMarket.Process:122
  [DEBUG] - 開始parsing上櫃檔案，pattern: content

2016-03-24 15:25:43,800 OTCMarket.GenerateJson:173
  [DEBUG] - parsing上櫃content檔完成，共 3780 筆

2016-03-24 15:25:43,802 OTCMarket.PutHeaderDataToModel:187
  [DEBUG] - 逐一將parsing結果放到對應的OTCHeaderModel Attribute

2016-03-24 15:25:43,803 OTCMarket.PutContentDataToModel:208
  [DEBUG] - 逐一將parsing結果放到對應的OTCContentModel Attribute

2016-03-24 15:47:04,263 MainForm.btnExecuteProcess_Click:170
  [INFO ] - 開始轉換上櫃檔案

2016-03-24 15:47:04,280 OTCMarket.ReadLastdayData:94
  [INFO ] - 取得最近一次的Output備份檔，備份檔路徑: D:\work\行情表web\StockTransformer\UenParser\bin\Debug\OutputBackup\20160323

2016-03-24 15:47:04,285 OTCMarket.ReadLastdayData:102
  [DEBUG] - 讀取檔案: D:\work\行情表web\StockTransformer\UenParser\bin\Debug\OutputBackup\20160323\OTC1_20160323.js 內容

2016-03-24 15:47:04,288 OTCMarket.ReadLastdayData:109
  [DEBUG] - 檔案讀取完成

2016-03-24 15:47:05,908 OTCMarket.ReadLastdayData:117
  [DEBUG] - 將讀取到的JSON字串轉為OTCContentModel[]

2016-03-24 15:47:05,957 OTCMarket.ReadTodayData:49
  [INFO ] - 取得今日的上櫃Source檔，檔案路徑: D:\work\行情表web\StockTransformer\UenParser\bin\Debug\Source\STKSECTINX.TXT

2016-03-24 15:47:05,958 OTCMarket.ReadTodayData:49
  [INFO ] - 取得今日的上櫃Source檔，檔案路徑: D:\work\行情表web\StockTransformer\UenParser\bin\Debug\Source\STKT1QUOTESN.TXT

2016-03-24 15:47:05,964 OTCMarket.Process:122
  [DEBUG] - 開始parsing上櫃檔案，pattern: header

2016-03-24 15:47:05,967 OTCMarket.Process:155
  [WARN ] - 上櫃 header 檔第 1 行，有不符合pattern的格式

2016-03-24 15:47:05,970 OTCMarket.GenerateJson:171
  [DEBUG] - parsing上櫃header檔完成，共 19 筆

2016-03-24 15:47:05,971 OTCMarket.Process:122
  [DEBUG] - 開始parsing上櫃檔案，pattern: content

2016-03-24 15:47:06,006 OTCMarket.GenerateJson:173
  [DEBUG] - parsing上櫃content檔完成，共 3780 筆

2016-03-24 15:47:06,008 OTCMarket.PutHeaderDataToModel:187
  [DEBUG] - 逐一將parsing結果放到對應的OTCHeaderModel Attribute

2016-03-24 15:47:06,010 OTCMarket.PutContentDataToModel:208
  [DEBUG] - 逐一將parsing結果放到對應的OTCContentModel Attribute

2016-03-24 15:49:50,031 MainForm.btnExecuteProcess_Click:161
  [INFO ] - 開始轉換上市檔案

2016-03-24 15:49:50,047 ExchangeMarket.ReadLastdayData:100
  [INFO ] - 取得最近一次的Output備份檔，備份檔路徑: D:\work\行情表web\StockTransformer\UenParser\bin\Debug\OutputBackup\20160323

2016-03-24 15:49:50,051 ExchangeMarket.ReadLastdayData:108
  [DEBUG] - 讀取檔案: D:\work\行情表web\StockTransformer\UenParser\bin\Debug\OutputBackup\20160323\Exchange1_20160323.js 內容

2016-03-24 15:49:50,055 ExchangeMarket.ReadLastdayData:115
  [DEBUG] - 檔案讀取完成

2016-03-24 15:49:50,058 ExchangeMarket.ReadLastdayData:123
  [DEBUG] - 將讀取到的JSON字串轉為ExchangeContentModel[]

2016-03-24 15:49:50,131 ExchangeMarket.ReadTodayData:59
  [INFO ] - 取得今日的上市Source檔，檔案路徑: D:\work\行情表web\StockTransformer\UenParser\bin\Debug\Source\Nstock0.prn

2016-03-24 15:49:50,132 ExchangeMarket.ReadTodayData:59
  [INFO ] - 取得今日的上市Source檔，檔案路徑: D:\work\行情表web\StockTransformer\UenParser\bin\Debug\Source\Nstock4.prn

2016-03-24 15:49:50,134 ExchangeMarket.Process:129
  [DEBUG] - 開始parsing上市檔案，pattern: header

2016-03-24 15:49:50,151 ExchangeMarket.GenerateJson:177
  [DEBUG] - parsing上市header檔完成，共 51 筆

2016-03-24 15:49:50,244 ExchangeMarket.Process:129
  [DEBUG] - 開始parsing上市檔案，pattern: content

2016-03-24 15:49:50,289 ExchangeMarket.Process:161
  [WARN ] - 上市 content 檔第 944 行，有不符合pattern的格式

2016-03-24 15:49:50,290 ExchangeMarket.GenerateJson:179
  [DEBUG] - parsing上市content檔完成，共 943 筆

2016-03-24 15:49:50,292 ExchangeMarket.PutHeaderDataToModel:284
  [DEBUG] - 逐一將parsing結果放到對應的ExchangeHeaderModel Attribute

2016-03-24 15:49:50,296 ExchangeMarket.PutContentDataToModel:194
  [DEBUG] - 逐一將parsing結果放到對應的ExchangeContentModel Attribute

2016-03-24 15:50:49,423 MainForm.btnExecuteProcess_Click:170
  [INFO ] - 開始轉換上櫃檔案

2016-03-24 15:50:49,441 OTCMarket.ReadLastdayData:94
  [INFO ] - 取得最近一次的Output備份檔，備份檔路徑: D:\work\行情表web\StockTransformer\UenParser\bin\Debug\OutputBackup\20160323

2016-03-24 15:50:49,446 OTCMarket.ReadLastdayData:102
  [DEBUG] - 讀取檔案: D:\work\行情表web\StockTransformer\UenParser\bin\Debug\OutputBackup\20160323\OTC1_20160323.js 內容

2016-03-24 15:50:49,451 OTCMarket.ReadLastdayData:109
  [DEBUG] - 檔案讀取完成

2016-03-24 15:50:49,453 OTCMarket.ReadLastdayData:117
  [DEBUG] - 將讀取到的JSON字串轉為OTCContentModel[]

2016-03-24 15:50:49,503 OTCMarket.ReadTodayData:49
  [INFO ] - 取得今日的上櫃Source檔，檔案路徑: D:\work\行情表web\StockTransformer\UenParser\bin\Debug\Source\STKSECTINX.TXT

2016-03-24 15:50:49,504 OTCMarket.ReadTodayData:49
  [INFO ] - 取得今日的上櫃Source檔，檔案路徑: D:\work\行情表web\StockTransformer\UenParser\bin\Debug\Source\STKT1QUOTESN.TXT

2016-03-24 15:50:49,513 OTCMarket.Process:122
  [DEBUG] - 開始parsing上櫃檔案，pattern: header

2016-03-24 15:50:49,516 OTCMarket.Process:155
  [WARN ] - 上櫃 header 檔第 1 行，有不符合pattern的格式

2016-03-24 15:50:49,641 OTCMarket.GenerateJson:171
  [DEBUG] - parsing上櫃header檔完成，共 19 筆

2016-03-24 15:50:49,641 OTCMarket.Process:122
  [DEBUG] - 開始parsing上櫃檔案，pattern: content

2016-03-24 15:50:49,675 OTCMarket.GenerateJson:173
  [DEBUG] - parsing上櫃content檔完成，共 3780 筆

2016-03-24 15:50:49,676 OTCMarket.PutHeaderDataToModel:187
  [DEBUG] - 逐一將parsing結果放到對應的OTCHeaderModel Attribute

2016-03-24 15:50:49,678 OTCMarket.PutContentDataToModel:208
  [DEBUG] - 逐一將parsing結果放到對應的OTCContentModel Attribute

2016-03-24 15:51:09,472 OTCMarket.PutContentDataToModel:227
  [WARN ] - 在最近一次的Output備份檔中找不到此股票: F-其祥

2016-03-24 15:52:59,781 OTCMarket.PutContentDataToModel:227
  [WARN ] - 在最近一次的Output備份檔中找不到此股票: 安心

2016-03-24 15:53:06,624 MainForm.btnExecuteProcess_Click:161
  [INFO ] - 開始轉換上市檔案

2016-03-24 15:53:06,641 ExchangeMarket.ReadLastdayData:100
  [INFO ] - 取得最近一次的Output備份檔，備份檔路徑: D:\work\行情表web\StockTransformer\UenParser\bin\Debug\OutputBackup\20160323

2016-03-24 15:53:06,645 ExchangeMarket.ReadLastdayData:108
  [DEBUG] - 讀取檔案: D:\work\行情表web\StockTransformer\UenParser\bin\Debug\OutputBackup\20160323\Exchange1_20160323.js 內容

2016-03-24 15:53:06,650 ExchangeMarket.ReadLastdayData:115
  [DEBUG] - 檔案讀取完成

2016-03-24 15:53:06,653 ExchangeMarket.ReadLastdayData:123
  [DEBUG] - 將讀取到的JSON字串轉為ExchangeContentModel[]

2016-03-24 15:53:06,729 ExchangeMarket.ReadTodayData:59
  [INFO ] - 取得今日的上市Source檔，檔案路徑: D:\work\行情表web\StockTransformer\UenParser\bin\Debug\Source\Nstock0.prn

2016-03-24 15:53:06,730 ExchangeMarket.ReadTodayData:59
  [INFO ] - 取得今日的上市Source檔，檔案路徑: D:\work\行情表web\StockTransformer\UenParser\bin\Debug\Source\Nstock4.prn

2016-03-24 15:53:06,733 ExchangeMarket.Process:129
  [DEBUG] - 開始parsing上市檔案，pattern: header

2016-03-24 15:53:06,750 ExchangeMarket.GenerateJson:177
  [DEBUG] - parsing上市header檔完成，共 51 筆

2016-03-24 15:53:06,750 ExchangeMarket.Process:129
  [DEBUG] - 開始parsing上市檔案，pattern: content

2016-03-24 15:53:06,774 ExchangeMarket.Process:161
  [WARN ] - 上市 content 檔第 944 行，有不符合pattern的格式

2016-03-24 15:53:06,775 ExchangeMarket.GenerateJson:179
  [DEBUG] - parsing上市content檔完成，共 943 筆

2016-03-24 15:53:06,778 ExchangeMarket.PutHeaderDataToModel:284
  [DEBUG] - 逐一將parsing結果放到對應的ExchangeHeaderModel Attribute

2016-03-24 15:53:06,855 ExchangeMarket.PutContentDataToModel:194
  [DEBUG] - 逐一將parsing結果放到對應的ExchangeContentModel Attribute

2016-03-24 15:54:13,934 MainForm.btnExecuteProcess_Click:170
  [INFO ] - 開始轉換上櫃檔案

2016-03-24 15:54:13,950 OTCMarket.ReadLastdayData:94
  [INFO ] - 取得最近一次的Output備份檔，備份檔路徑: D:\work\行情表web\StockTransformer\UenParser\bin\Debug\OutputBackup\20160323

2016-03-24 15:54:13,954 OTCMarket.ReadLastdayData:102
  [DEBUG] - 讀取檔案: D:\work\行情表web\StockTransformer\UenParser\bin\Debug\OutputBackup\20160323\OTC1_20160323.js 內容

2016-03-24 15:54:13,957 OTCMarket.ReadLastdayData:109
  [DEBUG] - 檔案讀取完成

2016-03-24 15:54:13,960 OTCMarket.ReadLastdayData:117
  [DEBUG] - 將讀取到的JSON字串轉為OTCContentModel[]

2016-03-24 15:54:13,999 OTCMarket.ReadTodayData:49
  [INFO ] - 取得今日的上櫃Source檔，檔案路徑: D:\work\行情表web\StockTransformer\UenParser\bin\Debug\Source\STKSECTINX.TXT

2016-03-24 15:54:14,000 OTCMarket.ReadTodayData:49
  [INFO ] - 取得今日的上櫃Source檔，檔案路徑: D:\work\行情表web\StockTransformer\UenParser\bin\Debug\Source\STKT1QUOTESN.TXT

2016-03-24 15:54:14,006 OTCMarket.Process:122
  [DEBUG] - 開始parsing上櫃檔案，pattern: header

2016-03-24 15:54:14,009 OTCMarket.Process:155
  [WARN ] - 上櫃 header 檔第 1 行，有不符合pattern的格式

2016-03-24 15:54:14,012 OTCMarket.GenerateJson:171
  [DEBUG] - parsing上櫃header檔完成，共 19 筆

2016-03-24 15:54:14,013 OTCMarket.Process:122
  [DEBUG] - 開始parsing上櫃檔案，pattern: content

2016-03-24 15:54:14,046 OTCMarket.GenerateJson:173
  [DEBUG] - parsing上櫃content檔完成，共 3780 筆

2016-03-24 15:54:14,047 OTCMarket.PutHeaderDataToModel:187
  [DEBUG] - 逐一將parsing結果放到對應的OTCHeaderModel Attribute

2016-03-24 15:54:14,049 OTCMarket.PutContentDataToModel:208
  [DEBUG] - 逐一將parsing結果放到對應的OTCContentModel Attribute

2016-03-24 15:55:45,827 MainForm.btnExecuteProcess_Click:170
  [INFO ] - 開始轉換上櫃檔案

2016-03-24 15:55:45,842 OTCMarket.ReadLastdayData:94
  [INFO ] - 取得最近一次的Output備份檔，備份檔路徑: D:\work\行情表web\StockTransformer\UenParser\bin\Debug\OutputBackup\20160323

2016-03-24 15:55:45,846 OTCMarket.ReadLastdayData:102
  [DEBUG] - 讀取檔案: D:\work\行情表web\StockTransformer\UenParser\bin\Debug\OutputBackup\20160323\OTC1_20160323.js 內容

2016-03-24 15:55:45,850 OTCMarket.ReadLastdayData:109
  [DEBUG] - 檔案讀取完成

2016-03-24 15:55:45,852 OTCMarket.ReadLastdayData:117
  [DEBUG] - 將讀取到的JSON字串轉為OTCContentModel[]

2016-03-24 15:55:45,892 OTCMarket.ReadTodayData:49
  [INFO ] - 取得今日的上櫃Source檔，檔案路徑: D:\work\行情表web\StockTransformer\UenParser\bin\Debug\Source\STKSECTINX.TXT

2016-03-24 15:55:45,893 OTCMarket.ReadTodayData:49
  [INFO ] - 取得今日的上櫃Source檔，檔案路徑: D:\work\行情表web\StockTransformer\UenParser\bin\Debug\Source\STKT1QUOTESN.TXT

2016-03-24 15:55:45,899 OTCMarket.Process:122
  [DEBUG] - 開始parsing上櫃檔案，pattern: header

2016-03-24 15:55:45,902 OTCMarket.Process:155
  [WARN ] - 上櫃 header 檔第 1 行，有不符合pattern的格式

2016-03-24 15:55:45,905 OTCMarket.GenerateJson:171
  [DEBUG] - parsing上櫃header檔完成，共 19 筆

2016-03-24 15:55:45,906 OTCMarket.Process:122
  [DEBUG] - 開始parsing上櫃檔案，pattern: content

2016-03-24 15:55:45,940 OTCMarket.GenerateJson:173
  [DEBUG] - parsing上櫃content檔完成，共 3780 筆

2016-03-24 15:55:45,941 OTCMarket.PutHeaderDataToModel:187
  [DEBUG] - 逐一將parsing結果放到對應的OTCHeaderModel Attribute

2016-03-24 15:55:45,943 OTCMarket.PutContentDataToModel:208
  [DEBUG] - 逐一將parsing結果放到對應的OTCContentModel Attribute

2016-03-24 15:57:43,777 MainForm.btnExecuteProcess_Click:161
  [INFO ] - 開始轉換上市檔案

2016-03-24 15:57:43,795 ExchangeMarket.ReadLastdayData:100
  [INFO ] - 取得最近一次的Output備份檔，備份檔路徑: D:\work\行情表web\StockTransformer\UenParser\bin\Debug\OutputBackup\20160323

2016-03-24 15:57:43,799 ExchangeMarket.ReadLastdayData:108
  [DEBUG] - 讀取檔案: D:\work\行情表web\StockTransformer\UenParser\bin\Debug\OutputBackup\20160323\Exchange1_20160323.js 內容

2016-03-24 15:57:43,803 ExchangeMarket.ReadLastdayData:115
  [DEBUG] - 檔案讀取完成

2016-03-24 15:57:43,805 ExchangeMarket.ReadLastdayData:123
  [DEBUG] - 將讀取到的JSON字串轉為ExchangeContentModel[]

2016-03-24 15:57:43,877 ExchangeMarket.ReadTodayData:59
  [INFO ] - 取得今日的上市Source檔，檔案路徑: D:\work\行情表web\StockTransformer\UenParser\bin\Debug\Source\Nstock0.prn

2016-03-24 15:57:43,878 ExchangeMarket.ReadTodayData:59
  [INFO ] - 取得今日的上市Source檔，檔案路徑: D:\work\行情表web\StockTransformer\UenParser\bin\Debug\Source\Nstock4.prn

2016-03-24 15:57:43,880 ExchangeMarket.Process:129
  [DEBUG] - 開始parsing上市檔案，pattern: header

2016-03-24 15:57:43,897 ExchangeMarket.GenerateJson:177
  [DEBUG] - parsing上市header檔完成，共 51 筆

2016-03-24 15:57:43,996 ExchangeMarket.Process:129
  [DEBUG] - 開始parsing上市檔案，pattern: content

2016-03-24 15:57:44,031 ExchangeMarket.Process:161
  [WARN ] - 上市 content 檔第 944 行，有不符合pattern的格式

2016-03-24 15:57:44,032 ExchangeMarket.GenerateJson:179
  [DEBUG] - parsing上市content檔完成，共 943 筆

2016-03-24 15:57:44,035 ExchangeMarket.PutHeaderDataToModel:284
  [DEBUG] - 逐一將parsing結果放到對應的ExchangeHeaderModel Attribute

2016-03-24 15:57:44,039 ExchangeMarket.PutContentDataToModel:194
  [DEBUG] - 逐一將parsing結果放到對應的ExchangeContentModel Attribute

2016-03-24 15:57:58,365 MainForm.btnExecuteProcess_Click:170
  [INFO ] - 開始轉換上櫃檔案

2016-03-24 15:57:58,381 OTCMarket.ReadLastdayData:94
  [INFO ] - 取得最近一次的Output備份檔，備份檔路徑: D:\work\行情表web\StockTransformer\UenParser\bin\Debug\OutputBackup\20160323

2016-03-24 15:57:58,385 OTCMarket.ReadLastdayData:102
  [DEBUG] - 讀取檔案: D:\work\行情表web\StockTransformer\UenParser\bin\Debug\OutputBackup\20160323\OTC1_20160323.js 內容

2016-03-24 15:57:58,388 OTCMarket.ReadLastdayData:109
  [DEBUG] - 檔案讀取完成

2016-03-24 15:57:58,391 OTCMarket.ReadLastdayData:117
  [DEBUG] - 將讀取到的JSON字串轉為OTCContentModel[]

2016-03-24 15:57:58,431 OTCMarket.ReadTodayData:49
  [INFO ] - 取得今日的上櫃Source檔，檔案路徑: D:\work\行情表web\StockTransformer\UenParser\bin\Debug\Source\STKSECTINX.TXT

2016-03-24 15:57:58,432 OTCMarket.ReadTodayData:49
  [INFO ] - 取得今日的上櫃Source檔，檔案路徑: D:\work\行情表web\StockTransformer\UenParser\bin\Debug\Source\STKT1QUOTESN.TXT

2016-03-24 15:57:58,438 OTCMarket.Process:122
  [DEBUG] - 開始parsing上櫃檔案，pattern: header

2016-03-24 15:57:58,442 OTCMarket.Process:155
  [WARN ] - 上櫃 header 檔第 1 行，有不符合pattern的格式

2016-03-24 15:57:58,584 OTCMarket.GenerateJson:171
  [DEBUG] - parsing上櫃header檔完成，共 19 筆

2016-03-24 15:57:58,584 OTCMarket.Process:122
  [DEBUG] - 開始parsing上櫃檔案，pattern: content

2016-03-24 15:57:58,618 OTCMarket.GenerateJson:173
  [DEBUG] - parsing上櫃content檔完成，共 3780 筆

2016-03-24 15:57:58,620 OTCMarket.PutHeaderDataToModel:187
  [DEBUG] - 逐一將parsing結果放到對應的OTCHeaderModel Attribute

2016-03-24 15:57:58,622 OTCMarket.PutContentDataToModel:208
  [DEBUG] - 逐一將parsing結果放到對應的OTCContentModel Attribute

2016-03-24 15:58:36,149 MainForm.btnExecuteProcess_Click:170
  [INFO ] - 開始轉換上櫃檔案

2016-03-24 15:58:36,167 OTCMarket.ReadLastdayData:94
  [INFO ] - 取得最近一次的Output備份檔，備份檔路徑: D:\work\行情表web\StockTransformer\UenParser\bin\Debug\OutputBackup\20160323

2016-03-24 15:58:36,171 OTCMarket.ReadLastdayData:102
  [DEBUG] - 讀取檔案: D:\work\行情表web\StockTransformer\UenParser\bin\Debug\OutputBackup\20160323\OTC1_20160323.js 內容

2016-03-24 15:58:36,174 OTCMarket.ReadLastdayData:109
  [DEBUG] - 檔案讀取完成

2016-03-24 15:58:36,175 OTCMarket.ReadLastdayData:117
  [DEBUG] - 將讀取到的JSON字串轉為OTCContentModel[]

2016-03-24 15:58:36,216 OTCMarket.ReadTodayData:49
  [INFO ] - 取得今日的上櫃Source檔，檔案路徑: D:\work\行情表web\StockTransformer\UenParser\bin\Debug\Source\STKSECTINX.TXT

2016-03-24 15:58:36,217 OTCMarket.ReadTodayData:49
  [INFO ] - 取得今日的上櫃Source檔，檔案路徑: D:\work\行情表web\StockTransformer\UenParser\bin\Debug\Source\STKT1QUOTESN.TXT

2016-03-24 15:58:36,223 OTCMarket.Process:122
  [DEBUG] - 開始parsing上櫃檔案，pattern: header

2016-03-24 15:58:36,226 OTCMarket.Process:155
  [WARN ] - 上櫃 header 檔第 1 行，有不符合pattern的格式

2016-03-24 15:58:36,361 OTCMarket.GenerateJson:171
  [DEBUG] - parsing上櫃header檔完成，共 19 筆

2016-03-24 15:58:36,362 OTCMarket.Process:122
  [DEBUG] - 開始parsing上櫃檔案，pattern: content

2016-03-24 15:58:36,408 OTCMarket.GenerateJson:173
  [DEBUG] - parsing上櫃content檔完成，共 3780 筆

2016-03-24 15:58:36,410 OTCMarket.PutHeaderDataToModel:187
  [DEBUG] - 逐一將parsing結果放到對應的OTCHeaderModel Attribute

2016-03-24 15:58:36,412 OTCMarket.PutContentDataToModel:208
  [DEBUG] - 逐一將parsing結果放到對應的OTCContentModel Attribute

2016-03-24 15:59:38,085 MainForm.btnExecuteProcess_Click:161
  [INFO ] - 開始轉換上市檔案

2016-03-24 15:59:38,101 ExchangeMarket.ReadLastdayData:100
  [INFO ] - 取得最近一次的Output備份檔，備份檔路徑: D:\work\行情表web\StockTransformer\UenParser\bin\Debug\OutputBackup\20160323

2016-03-24 15:59:38,105 ExchangeMarket.ReadLastdayData:108
  [DEBUG] - 讀取檔案: D:\work\行情表web\StockTransformer\UenParser\bin\Debug\OutputBackup\20160323\Exchange1_20160323.js 內容

2016-03-24 15:59:38,110 ExchangeMarket.ReadLastdayData:115
  [DEBUG] - 檔案讀取完成

2016-03-24 15:59:38,113 ExchangeMarket.ReadLastdayData:123
  [DEBUG] - 將讀取到的JSON字串轉為ExchangeContentModel[]

2016-03-24 15:59:38,186 ExchangeMarket.ReadTodayData:59
  [INFO ] - 取得今日的上市Source檔，檔案路徑: D:\work\行情表web\StockTransformer\UenParser\bin\Debug\Source\Nstock0.prn

2016-03-24 15:59:38,187 ExchangeMarket.ReadTodayData:59
  [INFO ] - 取得今日的上市Source檔，檔案路徑: D:\work\行情表web\StockTransformer\UenParser\bin\Debug\Source\Nstock4.prn

2016-03-24 15:59:38,189 ExchangeMarket.Process:129
  [DEBUG] - 開始parsing上市檔案，pattern: header

2016-03-24 15:59:38,206 ExchangeMarket.GenerateJson:177
  [DEBUG] - parsing上市header檔完成，共 51 筆

2016-03-24 15:59:38,207 ExchangeMarket.Process:129
  [DEBUG] - 開始parsing上市檔案，pattern: content

2016-03-24 15:59:38,329 ExchangeMarket.Process:161
  [WARN ] - 上市 content 檔第 944 行，有不符合pattern的格式

2016-03-24 15:59:38,330 ExchangeMarket.GenerateJson:179
  [DEBUG] - parsing上市content檔完成，共 943 筆

2016-03-24 15:59:38,333 ExchangeMarket.PutHeaderDataToModel:284
  [DEBUG] - 逐一將parsing結果放到對應的ExchangeHeaderModel Attribute

2016-03-24 15:59:38,337 ExchangeMarket.PutContentDataToModel:194
  [DEBUG] - 逐一將parsing結果放到對應的ExchangeContentModel Attribute

2016-03-24 16:00:34,657 MainForm.btnExecuteProcess_Click:170
  [INFO ] - 開始轉換上櫃檔案

2016-03-24 16:00:34,673 OTCMarket.ReadLastdayData:94
  [INFO ] - 取得最近一次的Output備份檔，備份檔路徑: D:\work\行情表web\StockTransformer\UenParser\bin\Debug\OutputBackup\20160323

2016-03-24 16:00:34,678 OTCMarket.ReadLastdayData:102
  [DEBUG] - 讀取檔案: D:\work\行情表web\StockTransformer\UenParser\bin\Debug\OutputBackup\20160323\OTC1_20160323.js 內容

2016-03-24 16:00:34,681 OTCMarket.ReadLastdayData:109
  [DEBUG] - 檔案讀取完成

2016-03-24 16:00:34,684 OTCMarket.ReadLastdayData:117
  [DEBUG] - 將讀取到的JSON字串轉為OTCContentModel[]

2016-03-24 16:00:34,726 OTCMarket.ReadTodayData:49
  [INFO ] - 取得今日的上櫃Source檔，檔案路徑: D:\work\行情表web\StockTransformer\UenParser\bin\Debug\Source\STKSECTINX.TXT

2016-03-24 16:00:34,727 OTCMarket.ReadTodayData:49
  [INFO ] - 取得今日的上櫃Source檔，檔案路徑: D:\work\行情表web\StockTransformer\UenParser\bin\Debug\Source\STKT1QUOTESN.TXT

2016-03-24 16:00:34,733 OTCMarket.Process:122
  [DEBUG] - 開始parsing上櫃檔案，pattern: header

2016-03-24 16:00:34,736 OTCMarket.Process:155
  [WARN ] - 上櫃 header 檔第 1 行，有不符合pattern的格式

2016-03-24 16:00:34,740 OTCMarket.GenerateJson:171
  [DEBUG] - parsing上櫃header檔完成，共 19 筆

2016-03-24 16:00:34,740 OTCMarket.Process:122
  [DEBUG] - 開始parsing上櫃檔案，pattern: content

2016-03-24 16:00:34,774 OTCMarket.GenerateJson:173
  [DEBUG] - parsing上櫃content檔完成，共 3780 筆

2016-03-24 16:00:34,776 OTCMarket.PutHeaderDataToModel:187
  [DEBUG] - 逐一將parsing結果放到對應的OTCHeaderModel Attribute

2016-03-24 16:00:34,778 OTCMarket.PutContentDataToModel:208
  [DEBUG] - 逐一將parsing結果放到對應的OTCContentModel Attribute

2016-03-24 16:04:47,759 MainForm.btnExecuteProcess_Click:170
  [INFO ] - 開始轉換上櫃檔案

2016-03-24 16:04:47,776 OTCMarket.ReadLastdayData:94
  [INFO ] - 取得最近一次的Output備份檔，備份檔路徑: D:\work\行情表web\StockTransformer\UenParser\bin\Debug\OutputBackup\20160323

2016-03-24 16:04:47,780 OTCMarket.ReadLastdayData:102
  [DEBUG] - 讀取檔案: D:\work\行情表web\StockTransformer\UenParser\bin\Debug\OutputBackup\20160323\OTC1_20160323.js 內容

2016-03-24 16:04:47,784 OTCMarket.ReadLastdayData:109
  [DEBUG] - 檔案讀取完成

2016-03-24 16:04:47,785 OTCMarket.ReadLastdayData:117
  [DEBUG] - 將讀取到的JSON字串轉為OTCContentModel[]

2016-03-24 16:04:47,824 OTCMarket.ReadTodayData:49
  [INFO ] - 取得今日的上櫃Source檔，檔案路徑: D:\work\行情表web\StockTransformer\UenParser\bin\Debug\Source\STKSECTINX.TXT

2016-03-24 16:04:47,826 OTCMarket.ReadTodayData:49
  [INFO ] - 取得今日的上櫃Source檔，檔案路徑: D:\work\行情表web\StockTransformer\UenParser\bin\Debug\Source\STKT1QUOTESN.TXT

2016-03-24 16:04:47,831 OTCMarket.Process:122
  [DEBUG] - 開始parsing上櫃檔案，pattern: header

2016-03-24 16:04:47,835 OTCMarket.Process:155
  [WARN ] - 上櫃 header 檔第 1 行，有不符合pattern的格式

2016-03-24 16:04:47,982 OTCMarket.GenerateJson:171
  [DEBUG] - parsing上櫃header檔完成，共 19 筆

2016-03-24 16:04:47,983 OTCMarket.Process:122
  [DEBUG] - 開始parsing上櫃檔案，pattern: content

2016-03-24 16:04:48,028 OTCMarket.GenerateJson:173
  [DEBUG] - parsing上櫃content檔完成，共 3780 筆

2016-03-24 16:04:48,029 OTCMarket.PutHeaderDataToModel:187
  [DEBUG] - 逐一將parsing結果放到對應的OTCHeaderModel Attribute

2016-03-24 16:04:48,031 OTCMarket.PutContentDataToModel:208
  [DEBUG] - 逐一將parsing結果放到對應的OTCContentModel Attribute

2016-03-24 16:16:50,023 MainForm.btnExecuteProcess_Click:176
  [INFO ] - 上櫃JS產生完成

2016-03-24 16:16:50,025 MainForm.BackupFiles:44
  [INFO ] - 開始備份檔案，備份種類: Source

2016-03-24 16:16:50,044 MainForm.BackupFiles:72
  [INFO ] - Source 資料夾 今日已備份!

2016-03-24 16:16:50,045 MainForm.BackupFiles:44
  [INFO ] - 開始備份檔案，備份種類: Output

2016-03-24 16:16:50,046 MainForm.BackupFiles:72
  [INFO ] - Output 資料夾 今日已備份!

2016-03-24 16:16:52,245 MainForm.btnExecuteProcess_Click:161
  [INFO ] - 開始轉換上市檔案

2016-03-24 16:16:52,247 ExchangeMarket.ReadLastdayData:100
  [INFO ] - 取得最近一次的Output備份檔，備份檔路徑: D:\work\行情表web\StockTransformer\UenParser\bin\Debug\OutputBackup\20160323

2016-03-24 16:16:52,248 ExchangeMarket.ReadLastdayData:108
  [DEBUG] - 讀取檔案: D:\work\行情表web\StockTransformer\UenParser\bin\Debug\OutputBackup\20160323\Exchange1_20160323.js 內容

2016-03-24 16:16:52,251 ExchangeMarket.ReadLastdayData:115
  [DEBUG] - 檔案讀取完成

2016-03-24 16:16:52,252 ExchangeMarket.ReadLastdayData:123
  [DEBUG] - 將讀取到的JSON字串轉為ExchangeContentModel[]

2016-03-24 16:16:52,302 ExchangeMarket.ReadTodayData:59
  [INFO ] - 取得今日的上市Source檔，檔案路徑: D:\work\行情表web\StockTransformer\UenParser\bin\Debug\Source\Nstock0.prn

2016-03-24 16:16:52,303 ExchangeMarket.ReadTodayData:59
  [INFO ] - 取得今日的上市Source檔，檔案路徑: D:\work\行情表web\StockTransformer\UenParser\bin\Debug\Source\Nstock4.prn

2016-03-24 16:16:52,305 ExchangeMarket.Process:129
  [DEBUG] - 開始parsing上市檔案，pattern: header

2016-03-24 16:16:52,319 ExchangeMarket.GenerateJson:177
  [DEBUG] - parsing上市header檔完成，共 51 筆

2016-03-24 16:16:52,319 ExchangeMarket.Process:129
  [DEBUG] - 開始parsing上市檔案，pattern: content

2016-03-24 16:16:52,343 ExchangeMarket.Process:161
  [WARN ] - 上市 content 檔第 944 行，有不符合pattern的格式

2016-03-24 16:16:52,344 ExchangeMarket.GenerateJson:179
  [DEBUG] - parsing上市content檔完成，共 943 筆

2016-03-24 16:16:52,347 ExchangeMarket.PutHeaderDataToModel:284
  [DEBUG] - 逐一將parsing結果放到對應的ExchangeHeaderModel Attribute

2016-03-24 16:16:52,351 ExchangeMarket.PutContentDataToModel:194
  [DEBUG] - 逐一將parsing結果放到對應的ExchangeContentModel Attribute

2016-03-24 17:00:46,401 MainForm.btnExecuteProcess_Click:170
  [INFO ] - 開始轉換上櫃檔案

2016-03-24 17:00:46,417 OTCMarket.ReadLastdayData:94
  [INFO ] - 取得最近一次的Output備份檔，備份檔路徑: D:\work\行情表web\StockTransformer\UenParser\bin\Debug\OutputBackup\20160323

2016-03-24 17:00:46,423 OTCMarket.ReadLastdayData:102
  [DEBUG] - 讀取檔案: D:\work\行情表web\StockTransformer\UenParser\bin\Debug\OutputBackup\20160323\OTC1_20160323.js 內容

2016-03-24 17:00:46,426 OTCMarket.ReadLastdayData:109
  [DEBUG] - 檔案讀取完成

2016-03-24 17:00:46,429 OTCMarket.ReadLastdayData:117
  [DEBUG] - 將讀取到的JSON字串轉為OTCContentModel[]

2016-03-24 17:00:46,469 OTCMarket.ReadTodayData:49
  [INFO ] - 取得今日的上櫃Source檔，檔案路徑: D:\work\行情表web\StockTransformer\UenParser\bin\Debug\Source\STKSECTINX.TXT

2016-03-24 17:00:46,470 OTCMarket.ReadTodayData:49
  [INFO ] - 取得今日的上櫃Source檔，檔案路徑: D:\work\行情表web\StockTransformer\UenParser\bin\Debug\Source\STKT1QUOTESN.TXT

2016-03-24 17:00:46,476 OTCMarket.Process:122
  [DEBUG] - 開始parsing上櫃檔案，pattern: header

2016-03-24 17:00:46,479 OTCMarket.Process:155
  [WARN ] - 上櫃 header 檔第 1 行，有不符合pattern的格式

2016-03-24 17:00:46,483 OTCMarket.GenerateJson:171
  [DEBUG] - parsing上櫃header檔完成，共 19 筆

2016-03-24 17:00:46,483 OTCMarket.Process:122
  [DEBUG] - 開始parsing上櫃檔案，pattern: content

2016-03-24 17:00:46,661 OTCMarket.GenerateJson:173
  [DEBUG] - parsing上櫃content檔完成，共 3780 筆

2016-03-24 17:00:46,662 OTCMarket.PutHeaderDataToModel:187
  [DEBUG] - 逐一將parsing結果放到對應的OTCHeaderModel Attribute

2016-03-24 17:00:46,665 OTCMarket.PutContentDataToModel:208
  [DEBUG] - 逐一將parsing結果放到對應的OTCContentModel Attribute

2016-03-24 17:10:31,956 MainForm.btnExecuteProcess_Click:170
  [INFO ] - 開始轉換上櫃檔案

2016-03-24 17:10:31,972 OTCMarket.ReadLastdayData:94
  [INFO ] - 取得最近一次的Output備份檔，備份檔路徑: D:\work\行情表web\StockTransformer\UenParser\bin\Debug\OutputBackup\20160323

2016-03-24 17:10:31,976 OTCMarket.ReadLastdayData:102
  [DEBUG] - 讀取檔案: D:\work\行情表web\StockTransformer\UenParser\bin\Debug\OutputBackup\20160323\OTC1_20160323.js 內容

2016-03-24 17:10:31,980 OTCMarket.ReadLastdayData:109
  [DEBUG] - 檔案讀取完成

2016-03-24 17:10:31,983 OTCMarket.ReadLastdayData:117
  [DEBUG] - 將讀取到的JSON字串轉為OTCContentModel[]

2016-03-24 17:10:32,023 OTCMarket.ReadTodayData:49
  [INFO ] - 取得今日的上櫃Source檔，檔案路徑: D:\work\行情表web\StockTransformer\UenParser\bin\Debug\Source\STKSECTINX.TXT

2016-03-24 17:10:32,024 OTCMarket.ReadTodayData:49
  [INFO ] - 取得今日的上櫃Source檔，檔案路徑: D:\work\行情表web\StockTransformer\UenParser\bin\Debug\Source\STKT1QUOTESN.TXT

2016-03-24 17:10:32,029 OTCMarket.Process:122
  [DEBUG] - 開始parsing上櫃檔案，pattern: header

2016-03-24 17:10:32,033 OTCMarket.Process:155
  [WARN ] - 上櫃 header 檔第 1 行，有不符合pattern的格式

2016-03-24 17:10:32,036 OTCMarket.GenerateJson:171
  [DEBUG] - parsing上櫃header檔完成，共 19 筆

2016-03-24 17:10:32,037 OTCMarket.Process:122
  [DEBUG] - 開始parsing上櫃檔案，pattern: content

2016-03-24 17:10:32,072 OTCMarket.GenerateJson:173
  [DEBUG] - parsing上櫃content檔完成，共 3780 筆

2016-03-24 17:10:32,074 OTCMarket.PutHeaderDataToModel:187
  [DEBUG] - 逐一將parsing結果放到對應的OTCHeaderModel Attribute

2016-03-24 17:10:32,076 OTCMarket.PutContentDataToModel:208
  [DEBUG] - 逐一將parsing結果放到對應的OTCContentModel Attribute

2016-03-24 17:10:35,495 MainForm.btnExecuteProcess_Click:176
  [INFO ] - 上櫃JS產生完成

2016-03-24 17:10:35,496 MainForm.BackupFiles:44
  [INFO ] - 開始備份檔案，備份種類: Source

2016-03-24 17:10:35,520 MainForm.BackupFiles:72
  [INFO ] - Source 資料夾 今日已備份!

2016-03-24 17:10:35,521 MainForm.BackupFiles:44
  [INFO ] - 開始備份檔案，備份種類: Output

2016-03-24 17:10:35,522 MainForm.BackupFiles:72
  [INFO ] - Output 資料夾 今日已備份!

2016-03-24 17:43:52,536 MainForm.btnExecuteProcess_Click:170
  [INFO ] - 開始轉換上櫃檔案

2016-03-24 17:43:52,553 OTCMarket.ReadLastdayData:94
  [INFO ] - 取得最近一次的Output備份檔，備份檔路徑: D:\work\行情表web\StockTransformer\UenParser\bin\Debug\OutputBackup\20160323

2016-03-24 17:43:52,557 OTCMarket.ReadLastdayData:102
  [DEBUG] - 讀取檔案: D:\work\行情表web\StockTransformer\UenParser\bin\Debug\OutputBackup\20160323\OTC1_20160323.js 內容

2016-03-24 17:43:52,560 OTCMarket.ReadLastdayData:109
  [DEBUG] - 檔案讀取完成

2016-03-24 17:43:52,563 OTCMarket.ReadLastdayData:117
  [DEBUG] - 將讀取到的JSON字串轉為OTCContentModel[]

2016-03-24 17:43:52,604 OTCMarket.ReadTodayData:49
  [INFO ] - 取得今日的上櫃Source檔，檔案路徑: D:\work\行情表web\StockTransformer\UenParser\bin\Debug\Source\STKSECTINX.TXT

2016-03-24 17:43:52,605 OTCMarket.ReadTodayData:49
  [INFO ] - 取得今日的上櫃Source檔，檔案路徑: D:\work\行情表web\StockTransformer\UenParser\bin\Debug\Source\STKT1QUOTESN.TXT

2016-03-24 17:43:52,611 OTCMarket.Process:122
  [DEBUG] - 開始parsing上櫃檔案，pattern: header

2016-03-24 17:43:52,615 OTCMarket.Process:155
  [WARN ] - 上櫃 header 檔第 1 行，有不符合pattern的格式

2016-03-24 17:43:52,754 OTCMarket.GenerateJson:171
  [DEBUG] - parsing上櫃header檔完成，共 19 筆

2016-03-24 17:43:52,754 OTCMarket.Process:122
  [DEBUG] - 開始parsing上櫃檔案，pattern: content

2016-03-24 17:43:52,788 OTCMarket.GenerateJson:173
  [DEBUG] - parsing上櫃content檔完成，共 3780 筆

2016-03-24 17:43:52,789 OTCMarket.PutHeaderDataToModel:187
  [DEBUG] - 逐一將parsing結果放到對應的OTCHeaderModel Attribute

2016-03-24 17:43:52,791 OTCMarket.PutContentDataToModel:208
  [DEBUG] - 逐一將parsing結果放到對應的OTCContentModel Attribute

2016-03-24 17:43:56,090 MainForm.btnExecuteProcess_Click:176
  [INFO ] - 上櫃JS產生完成

2016-03-24 17:43:56,092 MainForm.BackupFiles:44
  [INFO ] - 開始備份檔案，備份種類: Source

2016-03-24 17:43:56,112 MainForm.BackupFiles:72
  [INFO ] - Source 資料夾 今日已備份!

2016-03-24 17:43:56,113 MainForm.BackupFiles:44
  [INFO ] - 開始備份檔案，備份種類: Output

2016-03-24 17:43:56,114 MainForm.BackupFiles:72
  [INFO ] - Output 資料夾 今日已備份!

2016-03-24 17:56:23,072 MainForm.btnExecuteProcess_Click:170
  [INFO ] - 開始轉換上櫃檔案

2016-03-24 17:56:23,089 OTCMarket.ReadLastdayData:94
  [INFO ] - 取得最近一次的Output備份檔，備份檔路徑: D:\work\行情表web\StockTransformer\UenParser\bin\Debug\OutputBackup\20160323

2016-03-24 17:56:23,093 OTCMarket.ReadLastdayData:102
  [DEBUG] - 讀取檔案: D:\work\行情表web\StockTransformer\UenParser\bin\Debug\OutputBackup\20160323\OTC1_20160323.js 內容

2016-03-24 17:56:23,096 OTCMarket.ReadLastdayData:109
  [DEBUG] - 檔案讀取完成

2016-03-24 17:56:23,099 OTCMarket.ReadLastdayData:117
  [DEBUG] - 將讀取到的JSON字串轉為OTCContentModel[]

2016-03-24 17:56:23,139 OTCMarket.ReadTodayData:49
  [INFO ] - 取得今日的上櫃Source檔，檔案路徑: D:\work\行情表web\StockTransformer\UenParser\bin\Debug\Source\STKSECTINX.TXT

2016-03-24 17:56:23,140 OTCMarket.ReadTodayData:49
  [INFO ] - 取得今日的上櫃Source檔，檔案路徑: D:\work\行情表web\StockTransformer\UenParser\bin\Debug\Source\STKT1QUOTESN.TXT

2016-03-24 17:56:23,146 OTCMarket.Process:122
  [DEBUG] - 開始parsing上櫃檔案，pattern: header

2016-03-24 17:56:23,149 OTCMarket.Process:155
  [WARN ] - 上櫃 header 檔第 1 行，有不符合pattern的格式

2016-03-24 17:56:23,294 OTCMarket.GenerateJson:171
  [DEBUG] - parsing上櫃header檔完成，共 19 筆

2016-03-24 17:56:23,295 OTCMarket.Process:122
  [DEBUG] - 開始parsing上櫃檔案，pattern: content

2016-03-24 17:56:23,341 OTCMarket.GenerateJson:173
  [DEBUG] - parsing上櫃content檔完成，共 3780 筆

2016-03-24 17:56:23,342 OTCMarket.PutHeaderDataToModel:187
  [DEBUG] - 逐一將parsing結果放到對應的OTCHeaderModel Attribute

2016-03-24 17:56:23,344 OTCMarket.PutContentDataToModel:208
  [DEBUG] - 逐一將parsing結果放到對應的OTCContentModel Attribute

2016-03-24 17:58:21,040 MainForm.btnExecuteProcess_Click:170
  [INFO ] - 開始轉換上櫃檔案

2016-03-24 17:58:21,058 OTCMarket.ReadLastdayData:94
  [INFO ] - 取得最近一次的Output備份檔，備份檔路徑: D:\work\行情表web\StockTransformer\UenParser\bin\Debug\OutputBackup\20160323

2016-03-24 17:58:21,062 OTCMarket.ReadLastdayData:102
  [DEBUG] - 讀取檔案: D:\work\行情表web\StockTransformer\UenParser\bin\Debug\OutputBackup\20160323\OTC1_20160323.js 內容

2016-03-24 17:58:21,065 OTCMarket.ReadLastdayData:109
  [DEBUG] - 檔案讀取完成

2016-03-24 17:58:21,067 OTCMarket.ReadLastdayData:117
  [DEBUG] - 將讀取到的JSON字串轉為OTCContentModel[]

2016-03-24 17:58:21,107 OTCMarket.ReadTodayData:49
  [INFO ] - 取得今日的上櫃Source檔，檔案路徑: D:\work\行情表web\StockTransformer\UenParser\bin\Debug\Source\STKSECTINX.TXT

2016-03-24 17:58:21,108 OTCMarket.ReadTodayData:49
  [INFO ] - 取得今日的上櫃Source檔，檔案路徑: D:\work\行情表web\StockTransformer\UenParser\bin\Debug\Source\STKT1QUOTESN.TXT

2016-03-24 17:58:21,114 OTCMarket.Process:122
  [DEBUG] - 開始parsing上櫃檔案，pattern: header

2016-03-24 17:58:21,118 OTCMarket.Process:155
  [WARN ] - 上櫃 header 檔第 1 行，有不符合pattern的格式

2016-03-24 17:58:21,121 OTCMarket.GenerateJson:171
  [DEBUG] - parsing上櫃header檔完成，共 19 筆

2016-03-24 17:58:21,121 OTCMarket.Process:122
  [DEBUG] - 開始parsing上櫃檔案，pattern: content

2016-03-24 17:58:21,156 OTCMarket.GenerateJson:173
  [DEBUG] - parsing上櫃content檔完成，共 3780 筆

2016-03-24 17:58:21,157 OTCMarket.PutHeaderDataToModel:187
  [DEBUG] - 逐一將parsing結果放到對應的OTCHeaderModel Attribute

2016-03-24 17:58:21,269 OTCMarket.PutContentDataToModel:208
  [DEBUG] - 逐一將parsing結果放到對應的OTCContentModel Attribute

2016-03-24 17:58:24,562 MainForm.btnExecuteProcess_Click:176
  [INFO ] - 上櫃JS產生完成

2016-03-24 17:58:24,565 MainForm.BackupFiles:44
  [INFO ] - 開始備份檔案，備份種類: Source

2016-03-24 17:58:24,583 MainForm.BackupFiles:72
  [INFO ] - Source 資料夾 今日已備份!

2016-03-24 17:58:24,584 MainForm.BackupFiles:44
  [INFO ] - 開始備份檔案，備份種類: Output

2016-03-24 17:58:24,585 MainForm.BackupFiles:72
  [INFO ] - Output 資料夾 今日已備份!

